<?xml version="1.0" encoding="UTF-8" standalone="no"?>
<!-- Generator: Adobe Illustrator 15.1.0, SVG Export Plug-In . SVG Version: 6.00 Build 0)  -->
<!DOCTYPE svg  PUBLIC '-//W3C//DTD SVG 1.1//EN'  'http://www.w3.org/Graphics/SVG/1.1/DTD/svg11.dtd'>
<svg id="Layer_1" xmlns="http://www.w3.org/2000/svg" xml:space="preserve" height="74.068px" viewBox="0 0 576.702 74.068" width="576.7px" version="1.1" y="0px" x="0px" xmlns:xlink="http://www.w3.org/1999/xlink" enable-background="new 0 0 576.702 74.068">
		<path clip-rule="evenodd" d="m542.62 0.345h-15.86l-8.609 73.723h11.276l1.596-17.959h5.734l1.502 17.959h11.598l-7.24-73.723zm-8.12 19.807l-2.122 24.087h4.196l-2.08-24.087z" fill-rule="evenodd"/>
		<path clip-rule="evenodd" d="m382.33 0.345h-15.851l-8.607 73.723h11.266l1.605-17.959h5.719l1.517 17.959h11.586l-7.24-73.723zm-8.11 19.807l-2.132 24.087h4.208l-2.08-24.087z" fill-rule="evenodd"/>
		<path clip-rule="evenodd" d="m290.38 0.345h-15.848l-8.619 73.723h11.277l1.602-17.959h5.727l1.516 17.959h11.588l-7.25-73.723zm-8.12 19.807l-2.115 24.087h4.197l-2.08-24.087z" fill-rule="evenodd"/>
		<polygon points="327.98 37.847 323.13 0.364 304.47 0.364 304.47 74.068 315.44 74.068 315.44 30.815 321.44 74.068 333.12 74.068 339.59 30.586 339.59 74.068 351.02 74.068 351.02 0.364 332.89 0.364"/>
		<polygon points="432.06 0.364 444.83 0.364 444.83 74.068 432.06 74.068"/>
		<polygon points="511.3 74.068 511.3 61.97 497.77 61.97 497.77 0.345 484.92 0.345 484.92 74.068"/>
		<polygon points="478.07 74.068 478.07 61.97 464.54 61.97 464.54 0.345 451.67 0.345 451.67 74.068"/>
		<path clip-rule="evenodd" d="m396.41 30.904v43.164h11.819v-32.768c0-3.439 4.938 1.193 4.938 4.328v21.973c0 3.99 1.683 6.377 1.683 6.377l11.887 0.09s-1.518-2.385-1.518-6.43v-21.674c0-3.57 0-12.005-7.174-12.005 0 0 7.174-1.141 7.174-16.63 0-13.654-4.709-16.946-16.357-16.946h-12.451v30.521zm11.82-19.338l-0.011 17.168s4.948 0.899 4.948-8.853c-0.01-9.892-4.94-8.315-4.94-8.315z" fill-rule="evenodd"/>
		<path d="m555.7 10.244c0.021-5.69 4.742-10.253 10.534-10.244 5.784 0.03 10.478 4.623 10.469 10.316-0.022 5.69-4.745 10.246-10.536 10.246-5.78-0.033-10.48-4.624-10.46-10.318zm1.52 0.008c0 4.812 3.983 8.757 8.947 8.775 4.966 0.021 8.969-3.907 9.006-8.719 0-4.823-3.973-8.762-8.938-8.776-4.99-0.023-8.99 3.894-9.02 8.72z"/>
			<path d="m559.9 13.646h-0.788l0.038-7.149 1.38 0.013 2.245 5.727 2.217-5.713h1.379l-0.021 7.146h-0.943l0.024-6.241h-0.04l-2.378 6.231h-0.64l-2.406-6.245h-0.041l-0.03 6.231z"/>
			<path d="m572.22 13.698l-1.379-3.113h-2.072l-0.01 3.089-0.924-0.005 0.02-7.134h2.799c0.613 0.005 1.206 0.08 1.692 0.45 0.513 0.367 0.802 0.961 0.802 1.562 0 0.84-0.527 1.603-1.403 1.825l1.454 3.326h-0.98zm-1.68-3.839c0.505 0 0.904-0.024 1.282-0.39 0.261-0.252 0.39-0.59 0.39-0.936 0.01-0.42-0.167-0.758-0.519-0.996-0.335-0.215-0.648-0.227-1.038-0.227l-1.86-0.01-0.019 2.56h1.77z"/>
			<path d="m176.85 0.274c-12.387 0-22.429 10.047-22.429 22.441s22.429 51.467 22.429 51.467 22.427-39.074 22.427-51.467c0-12.394-10.04-22.441-22.43-22.441z"/>
			<circle cy="23.028" cx="176.85" r="12.309" fill="#fd0"/>
		<polygon points="231 38.525 224.62 0.32 206.12 0.32 206.12 74.15 216.72 74.132 216.72 27.259 226.22 74.132 241.78 74.132 241.78 0.32 231 0.32"/>
		<path d="m100.23 37.552c0 7.699-0.034 15.178-0.034 22.328 0 19.979 28.698 17.348 28.698 2.064v-16.418h-11.536v15.098c0 5.797-5.647 5.771-5.647-0.373v-22.916-23.126c0-6.136 5.647-6.159 5.647-0.372v15.105h11.536v-16.42c0-15.289-28.698-17.914-28.698 2.059 0 7.148 0.03 15.271 0.03 22.971z"/>
		<path d="m64.513 37.552s-0.033 15.178-0.033 22.328c0 19.979 28.704 17.348 28.704 2.064v-16.418h-11.537v15.098c0 5.797-5.648 5.771-5.648-0.373v-22.916-23.126c0-6.136 5.648-6.159 5.648-0.372v15.105h11.536v-16.42c0-15.289-28.704-17.914-28.704 2.059 0 7.148 0.034 15.271 0.034 22.971z"/>
		<polygon points="57.605 0.326 35.555 0.326 35.555 74.132 57.605 74.132 57.605 61.964 47.236 61.964 47.236 43.847 57.605 43.847 57.605 30.4 47.236 30.4 47.236 14.943 57.605 14.943"/>
		<path d="m28.616 28.44v-15.969c0-16.175-28.616-16.175-28.616-0.109v10.187c0 5.892 3.194 9.793 3.665 10.397 0.985 1.257 8.94 11.215 10.667 13.59 2.901 3.975 2.901 5.459 2.901 12.986 0 6.627-5.824 6.627-5.824 0.102v-14.266h-11.409v16.361c0 16.662 28.948 16.508 28.948-0.146 0-3.277 1.162-14.102-3.283-19.406-3.887-4.666-9.969-12.445-12.09-15.351-2.729-3.724-2.165-6.235-2.165-13.479 0-4.306 5.824-4.413 5.824 0.104v14.999h11.382z"/>
		<polygon points="135.84 0.273 147.54 0.273 147.54 74.132 135.84 74.132"/>
</svg>
