<?xml version="1.0" encoding="utf-8"?>
<!-- Generator: Adobe Illustrator 19.2.0, SVG Export Plug-In . SVG Version: 6.00 Build 0)  -->
<svg version="1.1" id="Layer_1" xmlns="http://www.w3.org/2000/svg" xmlns:xlink="http://www.w3.org/1999/xlink" x="0px" y="0px"
	 viewBox="0 0 55 55" style="enable-background:new 0 0 55 55;" xml:space="preserve">
<style type="text/css">
	.st0{fill:#6B5800;}
</style>
<g>
	<path class="st0" d="M21.2,15c-4.6,0-8.4,3.8-8.4,8.4c0,2,0.4,3.4,1.5,5.2c0.9,1.4,4.7,7,6.8,10c1.8-2.7,5.9-8.5,6.8-10
		c1.1-1.8,1.6-3.3,1.6-5.2C29.5,18.8,25.7,15,21.2,15z M21.1,28c-2.5,0-4.6-2.1-4.6-4.6s2.1-4.6,4.6-4.6s4.6,2.1,4.6,4.6
		S23.6,28,21.1,28z"/>
	<path class="st0" d="M27.5,2.5c-13.8,0-25,11.2-25,25s11.2,25,25,25s25-11.2,25-25S41.3,2.5,27.5,2.5z M32.4,22
		c0-0.2,0.1-0.3,0.3-0.3c0.1,0,0.2,0,0.2,0c1.2,0,2.4,0.3,3.5,0.9c-0.3,0.7-0.5,1.3-0.6,1.9c-0.9-0.6-1.9-0.9-3-0.9h-0.1
		c-0.1,0-0.1,0-0.2-0.1s-0.1-0.2-0.1-0.2V22z M22,41.4l-0.5,0.7c-0.1,0.2-0.3,0.3-0.5,0.3s-0.4-0.1-0.5-0.3L20,41.4
		c0-0.1-6.6-9.6-7.9-11.6c-1.3-2.2-1.9-4.1-1.9-6.5c0-6,4.9-10.9,10.9-10.9s10.9,5,10.9,11c0,2.5-0.5,4.3-2,6.4
		C28.7,31.8,22.1,41.3,22,41.4z M33.5,41.4L33,42.1c0,0.1-0.1,0.1-0.2,0.1c-0.1,0-0.1,0-0.2-0.1l-0.5-0.7c-0.1-0.1-2.9-4.2-4.5-6.5
		c-0.1-0.1,0-0.3,0.1-0.4l1-0.7c0,0,0.1,0,0.2,0c0.1,0,0.2,0,0.2,0.1c1.1,1.5,2.7,3.9,3.7,5.3c1-1.5,3.2-4.6,4.2-6.1
		c0.5,0.3,1.1,0.5,1.7,0.7C37.7,35.3,33.9,40.8,33.5,41.4z M39.3,31.7c-1.3,0-2.1-0.9-2.1-2.2s0.9-2.2,2.1-2.2
		c1.3,0,2.1,0.9,2.1,2.2C41.4,30.7,40.5,31.7,39.3,31.7z M42.3,22.7c-0.9,1-1.2,1.9-1.2,3v0.4h-3.3v0.1v-0.1v-0.5
		c-0.1-1.2,0.3-2.5,1.4-3.8c0.8-0.9,1.4-1.7,1.4-2.5s-0.5-1.4-1.7-1.4c-0.8,0-1.7,0.3-2.4,0.7L35.7,16c0.9-0.5,2.3-1,4-1
		c3.2,0,4.6,1.7,4.6,3.7C44.3,20.5,43.2,21.7,42.3,22.7z"/>
</g>
</svg>
