<?xml version="1.0" encoding="utf-8"?>
<!-- Generator: Adobe Illustrator 19.2.0, SVG Export Plug-In . SVG Version: 6.00 Build 0)  -->
<svg version="1.1" id="Layer_1" xmlns="http://www.w3.org/2000/svg" xmlns:xlink="http://www.w3.org/1999/xlink" x="0px" y="0px"
	 viewBox="0 0 202 50" style="enable-background:new 0 0 202 50;" xml:space="preserve">
<style type="text/css">
	.st0{opacity:0.15;fill:url(#XMLID_2_);enable-background:new    ;}
	.st1{fill:#912B8C;}
	.st2{fill:#66C8CD;}
	.st3{fill:#F9A620;}
	.st4{fill:url(#SVGID_1_);}
	.st5{fill:url(#SVGID_2_);}
	.st6{fill:url(#SVGID_3_);}
	.st7{fill:#761451;}
	.st8{fill:#010101;}
	.st9{fill:#FFD100;}
</style>
<g>
	<g>
		<g>
			
				<radialGradient id="XMLID_2_" cx="12.737" cy="-657.3253" r="1.979" gradientTransform="matrix(15.4216 0 0 -1.8391 -90.2161 -1173.308)" gradientUnits="userSpaceOnUse">
				<stop  offset="0" style="stop-color:#010101"/>
				<stop  offset="6.680602e-02" style="stop-color:#2E2C2C"/>
				<stop  offset="0.1417" style="stop-color:#504D4D"/>
				<stop  offset="0.2227" style="stop-color:#737070"/>
				<stop  offset="0.3087" style="stop-color:#979393"/>
				<stop  offset="0.4013" style="stop-color:#B7B4B4"/>
				<stop  offset="0.5031" style="stop-color:#D2D0D0"/>
				<stop  offset="0.6187" style="stop-color:#E7E6E6"/>
				<stop  offset="0.7598" style="stop-color:#F7F7F7"/>
				<stop  offset="1" style="stop-color:#FFFFFF"/>
			</radialGradient>
			<ellipse id="XMLID_65_" class="st0" cx="106.2" cy="35.5" rx="30.6" ry="3.6"/>
		</g>
		<g>
			<path class="st1" d="M100.4,32.3L100.4,32.3c-1.7,0-3.1-1.3-3.1-3.1V8.6c0-1.7,1.3-3.1,3.1-3.1l0,0c1.7,0,3.1,1.3,3.1,3.1v20.7
				C103.5,31,102.1,32.3,100.4,32.3z"/>
			<path class="st2" d="M99.4,21.2L99.4,21.2c-1.2-1.2-1.2-3.1,0-4.3l10.5-10.5c1.2-1.2,3.1-1.2,4.3,0l0,0c1.2,1.2,1.2,3.1,0,4.3
				l-10.5,10.5C102.5,22.4,100.6,22.4,99.4,21.2z"/>
			<path class="st3" d="M99.4,16.6L99.4,16.6c-1.2,1.2-1.2,3.1,0,4.3l10.5,10.5c1.2,1.2,3.1,1.2,4.3,0l0,0c1.2-1.2,1.2-3.1,0-4.3
				l-10.5-10.5C102.5,15.4,100.6,15.4,99.4,16.6z"/>
		</g>
		<g>
			<path d="M59.6,21.9h-4.8v7.4c0,1.1-0.2,1.8-0.7,2.4c-0.5,0.6-1.1,0.8-1.9,0.8c-0.8,0-1.4-0.2-1.9-0.8c-0.5-0.5-0.7-1.3-0.7-2.4
				V9.2c0-1.2,0.2-2,0.8-2.5C50.9,6.2,51.9,6,52.9,6h6.7c2,0,3.6,0.1,4.7,0.5c1.1,0.2,2,0.8,2.7,1.4c0.7,0.7,1.3,1.6,1.8,2.5
				c0.4,1,0.6,2.2,0.6,3.3c0,2.6-0.8,4.7-2.4,6C65.2,21.2,62.9,21.9,59.6,21.9z M58.3,9.9h-3.6v7.9h3.6c1.2,0,2.3-0.1,3.1-0.4
				c0.8-0.2,1.4-0.7,1.9-1.3c0.5-0.6,0.6-1.3,0.6-2.3c0-1.2-0.4-2-1-2.8C62.3,10.3,60.7,9.9,58.3,9.9z"/>
			<path d="M87.1,29.1l-1.2-3.2H75.4l-1.2,3.3c-0.5,1.3-1,2.2-1.2,2.6c-0.4,0.5-1,0.7-1.7,0.7c-0.7,0-1.2-0.2-1.8-0.7
				c-0.5-0.5-0.7-1.1-0.7-1.7c0-0.4,0-0.7,0.1-1.1s0.4-1,0.6-1.6l6.7-16.9c0.2-0.5,0.4-1.1,0.7-1.8c0.2-0.7,0.6-1.2,0.8-1.7
				c0.4-0.5,0.7-0.8,1.2-1.1c0.5-0.2,1.1-0.4,1.8-0.4c0.7,0,1.3,0.1,1.8,0.4c0.5,0.2,0.8,0.6,1.2,1.1c0.4,0.5,0.6,1,0.7,1.4
				c0.2,0.5,0.5,1.2,0.8,2l6.8,16.7c0.5,1.3,0.8,2.2,0.8,2.8s-0.2,1.2-0.7,1.7c-0.5,0.5-1.1,0.7-1.8,0.7c-0.4,0-0.7-0.1-1.1-0.2
				c-0.2-0.1-0.6-0.4-0.7-0.6c-0.2-0.2-0.4-0.6-0.6-1.2C87.5,29.9,87.3,29.4,87.1,29.1z M76.7,21.8h7.8L80.5,11L76.7,21.8z"/>
			<path d="M136.8,10H125v6.3h10.9c0.8,0,1.4,0.2,1.8,0.6s0.6,0.8,0.6,1.4s-0.2,1.1-0.6,1.4c-0.4,0.4-1,0.6-1.8,0.6H125v7.4h12.3
				c0.8,0,1.4,0.2,1.9,0.6c0.5,0.4,0.6,0.8,0.6,1.6c0,0.6-0.2,1.1-0.6,1.6c-0.5,0.4-1.1,0.6-1.9,0.6h-14.3c-1.2,0-1.9-0.2-2.5-0.7
				c-0.5-0.5-0.7-1.3-0.7-2.5V9.2c0-0.7,0.1-1.3,0.4-1.8s0.6-0.8,1.1-1.1c0.5-0.2,1.1-0.4,1.8-0.4h13.9c0.8,0,1.4,0.2,1.9,0.6
				c0.4,0.4,0.6,0.8,0.6,1.4s-0.2,1.1-0.6,1.4C138.2,9.8,137.6,10,136.8,10z"/>
			<path d="M160.7,10.3h-5.7v18.9c0,1.1-0.2,1.9-0.7,2.4c-0.5,0.5-1.1,0.8-1.9,0.8s-1.4-0.2-1.9-0.8c-0.5-0.5-0.7-1.3-0.7-2.4V10.3
				H144c-1,0-1.6-0.2-2-0.6c-0.5-0.4-0.6-1-0.6-1.6c0-0.7,0.2-1.2,0.7-1.6c0.5-0.4,1.1-0.6,2-0.6h16.7c1,0,1.6,0.2,2,0.6
				c0.5,0.4,0.7,1,0.7,1.6s-0.2,1.2-0.7,1.6C162.2,10,161.6,10.3,160.7,10.3z"/>
			<path d="M166.8,29.2V8.7c0-1.1,0.2-1.9,0.7-2.4c0.5-0.5,1.1-0.8,1.9-0.8s1.4,0.2,1.9,0.8c0.5,0.5,0.7,1.3,0.7,2.4v20.5
				c0,1.1-0.2,1.9-0.7,2.4c-0.5,0.5-1.1,0.8-1.9,0.8c-0.7,0-1.4-0.2-1.9-0.8C167,31.1,166.8,30.3,166.8,29.2z"/>
			<path d="M194.5,29.1l-1.2-3.2h-10.6l-1.2,3.3c-0.5,1.3-1,2.2-1.2,2.6c-0.4,0.5-1,0.7-1.7,0.7s-1.2-0.2-1.8-0.7
				c-0.5-0.5-0.7-1.1-0.7-1.7c0-0.4,0-0.7,0.1-1.1s0.4-1,0.6-1.6l6.7-16.9c0.2-0.5,0.4-1.1,0.7-1.8c0.2-0.7,0.6-1.2,0.8-1.7
				c0.4-0.5,0.7-0.8,1.2-1.1c0.5-0.2,1.1-0.4,1.8-0.4c0.7,0,1.3,0.1,1.8,0.4c0.5,0.2,0.8,0.6,1.2,1.1s0.6,1,0.7,1.4
				c0.2,0.5,0.5,1.2,0.8,2l6.8,16.7c0.5,1.3,0.8,2.2,0.8,2.8s-0.2,1.2-0.7,1.7c-0.5,0.5-1.1,0.7-1.8,0.7c-0.4,0-0.7-0.1-1.1-0.2
				c-0.2-0.1-0.6-0.4-0.7-0.6c-0.2-0.2-0.4-0.6-0.6-1.2C194.8,29.9,194.6,29.4,194.5,29.1z M184.1,21.8h7.8L187.9,11L184.1,21.8z"/>
		</g>
	</g>
	<g>
		
			<linearGradient id="SVGID_1_" gradientUnits="userSpaceOnUse" x1="6.8807" y1="14.0559" x2="6.8807" y2="51.6157" gradientTransform="matrix(1 0 0 -1 0 51.7)">
			<stop  offset="0" style="stop-color:#000000"/>
			<stop  offset="1" style="stop-color:#FFFFFF;stop-opacity:0.5"/>
		</linearGradient>
		<path class="st4" d="M1.6,27.9c0,0,0.1,4.1,2.9,5.5l7.2,4.2c0,0-2.9-1.2-3.3-7.9C7.8,23,7.2,16.6,6.5,8.7S13.8,0,13.8,0
			S-0.7,1,0,9.7L1.6,27.9z"/>
		
			<linearGradient id="SVGID_2_" gradientUnits="userSpaceOnUse" x1="15.5398" y1="9.834" x2="15.5398" y2="27.8748" gradientTransform="matrix(1 0 0 -1 0 51.7)">
			<stop  offset="0" style="stop-color:#262626"/>
			<stop  offset="0.5538" style="stop-color:#FFFFFF;stop-opacity:0"/>
		</linearGradient>
		<path class="st5" d="M11.4,32.9c0,0,0.1,4.1,2.9,5.5l5.9,3.5V26.1c0,0-9.7-6.5-9.1,2.3L11.4,32.9z"/>
		
			<linearGradient id="SVGID_3_" gradientUnits="userSpaceOnUse" x1="30.1079" y1="18.4464" x2="30.1079" y2="31.7303" gradientTransform="matrix(1 0 0 -1 0 51.7)">
			<stop  offset="0" style="stop-color:#262626"/>
			<stop  offset="0.5538" style="stop-color:#FFFFFF;stop-opacity:0"/>
		</linearGradient>
		<path class="st6" d="M25,24c0,0,0.1,4.1,2.9,5.5l6.7,3.7l0.7-9.8C35.1,23.4,24.3,15.3,25,24L25,24z"/>
		<ellipse class="st7" cx="21.5" cy="34.6" rx="4.5" ry="7.7"/>
		<ellipse class="st7" cx="35.1" cy="28.8" rx="2.7" ry="4.5"/>
		<path class="st7" d="M40.5,21.9L40,11.4C39.9,6.1,36,5.1,36,5.1L17.8,0.4C5.4-1.8,6.7,8.9,6.7,8.9l1.9,22.7
			c0.7,7.5,6.2,7.1,8.5,6.6c-0.4-1.1-0.5-2.3-0.5-3.6c0-4.7,2.3-8.5,5.1-8.5c2.5,0,4.7,3,5.1,7.1l5.4-2.9c-0.1-0.5-0.1-1-0.1-1.4
			c0-3,1.4-5.4,3.3-5.4c1.4,0,2.6,1.4,3.1,3.5C40.9,25.5,40.5,21.9,40.5,21.9z M36.7,8.3l-8.2,8.4L10.7,4.2
			c-0.2-0.1-0.2-0.4-0.1-0.6c0.1-0.2,0.4-0.2,0.5-0.1l17.3,12.1l7.8-7.9c0.1-0.1,0.4-0.1,0.6,0C36.9,7.8,36.9,8,36.7,8.3z"/>
	</g>
	<g>
		<g>
			<path class="st8" d="M198.3,41.9h-1.7l-1,8h1.2L197,48h0.6l0.1,1.9h1.2L198.3,41.9L198.3,41.9z M197.3,44l-0.2,2.6h0.5L197.3,44
				L197.3,44z"/>
			<path class="st8" d="M181,41.9h-1.7l-1,8h1.2l0.1-1.9h0.6l0.1,1.9h1.2L181,41.9L181,41.9z M180.1,44l-0.2,2.6h0.5L180.1,44
				L180.1,44z"/>
			<path class="st8" d="M171.1,41.9h-1.7l-1,8h1.2l0.1-1.9h0.6l0.1,1.9h1.2L171.1,41.9L171.1,41.9z M170.2,44l-0.2,2.6h0.5L170.2,44
				L170.2,44z"/>
			<polygon class="st8" points="175.1,45.9 174.6,41.9 172.6,41.9 172.6,49.9 173.8,49.9 173.8,45.2 174.4,49.9 175.7,49.9 
				176.4,45.2 176.4,49.9 177.6,49.9 177.6,41.9 175.7,41.9 			"/>
			<polygon class="st8" points="186.4,41.9 187.8,41.9 187.8,49.9 186.4,49.9 			"/>
			<polygon class="st8" points="195,49.9 195,48.6 193.4,48.6 193.4,41.9 192.1,41.9 192.1,49.9 			"/>
			<polygon class="st8" points="191.4,49.9 191.4,48.6 189.8,48.6 189.8,41.9 188.5,41.9 188.5,49.9 			"/>
			<path class="st8" d="M182.5,45.2v4.7h1.3v-3.6c0-0.4,0.5,0.1,0.5,0.5v2.4c0,0.5,0.2,0.7,0.2,0.7h1.3c0,0-0.1-0.2-0.1-0.7v-2.4
				c0-0.4,0-1.3-0.7-1.3c0,0,0.7-0.1,0.7-1.8c0-1.4-0.5-1.8-1.8-1.8h-1.3v3.3H182.5z M183.8,43.2V45c0,0,0.5,0.1,0.5-1
				C184.3,42.9,183.8,43.2,183.8,43.2L183.8,43.2z"/>
			<path class="st8" d="M199.7,42.9c0-0.6,0.5-1.1,1.2-1.1l0,0c0.6,0,1.1,0.5,1.1,1.1l0,0c0,0.6-0.5,1.1-1.2,1.1l0,0
				C200.2,44.1,199.7,43.5,199.7,42.9L199.7,42.9z M199.9,42.9c0,0.5,0.5,1,1,1l0,0c0.5,0,1-0.5,1-1l0,0c0-0.5-0.5-1-1-1l0,0
				C200.3,42,199.9,42.5,199.9,42.9L199.9,42.9L199.9,42.9z"/>
			<g>
				<path class="st8" d="M200.1,43.3L200.1,43.3l-0.1-0.7h0.1l0.2,0.6l0.2-0.6h0.1v0.7h-0.1v-0.7l0,0l-0.2,0.7h-0.1l-0.2-0.7l0,0
					L200.1,43.3z"/>
				<path class="st8" d="M201.5,43.3l-0.1-0.4h-0.2v0.4H201v-0.7h0.4c0.1,0,0.1,0,0.2,0l0.1,0.1c0,0.1,0,0.1-0.1,0.2L201.5,43.3
					L201.5,43.3z M201.3,42.9h0.1v-0.1v-0.1h-0.1H201v0.2C201,42.9,201.3,42.9,201.3,42.9z"/>
			</g>
			<g>
				<path class="st8" d="M158.9,41.9c-1.3,0-2.4,1.1-2.4,2.4s2.4,5.5,2.4,5.5s2.4-4.2,2.4-5.5C161.3,42.9,160.2,41.9,158.9,41.9z"/>
				<circle class="st9" cx="158.9" cy="44.4" r="1.3"/>
			</g>
			<polygon class="st8" points="164.7,46.1 164,41.9 162,41.9 162,49.9 163.2,49.9 163.2,44.9 164.1,49.9 165.8,49.9 165.8,41.9 
				164.7,41.9 			"/>
			<path class="st8" d="M150.6,45.9c0,0.8,0,1.7,0,2.4c0,2.2,3.1,1.9,3.1,0.2c0-1.4,0-1.8,0-1.8h-1.2c0,0,0,0.8,0,1.7
				c0,0.6-0.6,0.6-0.6,0c0-0.4,0-1.4,0-2.5c0-1.1,0-2.2,0-2.5c0-0.7,0.6-0.7,0.6,0s0,1.7,0,1.7h1.2c0,0,0-0.4,0-1.8
				c0-1.7-3.1-1.9-3.1,0.2C150.6,44.3,150.6,45.1,150.6,45.9L150.6,45.9z"/>
			<path class="st8" d="M146.8,45.9c0,0,0,1.7,0,2.4c0,2.2,3.1,1.9,3.1,0.2c0-1.4,0-1.8,0-1.8h-1.2c0,0,0,0.8,0,1.7
				c0,0.6-0.6,0.6-0.6,0c0-0.4,0-1.4,0-2.5c0-1.1,0-2.2,0-2.5c0-0.7,0.6-0.7,0.6,0s0,1.7,0,1.7h1.2c0,0,0-0.4,0-1.8
				c0-1.7-3.1-1.9-3.1,0.2C146.8,44.3,146.8,45.1,146.8,45.9L146.8,45.9z"/>
			<polygon class="st8" points="146,41.9 143.6,41.9 143.6,49.9 146,49.9 146,48.6 144.9,48.6 144.9,46.7 146,46.7 146,45.2 
				144.9,45.2 144.9,43.5 146,43.5 			"/>
			<path class="st8" d="M142.9,45c0,0,0-1.1,0-1.7c0-1.8-3.1-1.8-3.1,0c0,0.2,0,0.7,0,1.1c0,0.6,0.4,1.1,0.4,1.1
				c0.1,0.1,1,1.2,1.2,1.4c0.4,0.5,0.4,0.6,0.4,1.4c0,0.7-0.6,0.7-0.6,0c0-0.2,0-1.6,0-1.6h-1.2c0,0,0,1.2,0,1.8
				c0,1.8,3.1,1.8,3.1,0c0-0.4,0.1-1.6-0.4-2.2c-0.5-0.5-1.1-1.3-1.3-1.7c-0.2-0.4-0.2-0.7-0.2-1.4c0-0.5,0.6-0.5,0.6,0
				c0,0.4,0,1.7,0,1.7L142.9,45L142.9,45z"/>
			<polygon class="st8" points="154.5,41.9 155.7,41.9 155.7,49.9 154.5,49.9 			"/>
		</g>
		<g>
			<path d="M131.9,49.4L131.9,49.4c-0.1,0-0.2,0.2-0.4,0.2c-0.1,0.1-0.2,0.1-0.5,0.2c-0.1,0-0.4,0.1-0.5,0.1c-0.2,0-0.5,0-0.7-0.1
				c-0.2-0.1-0.4-0.2-0.6-0.5c-0.1-0.2-0.2-0.5-0.4-0.7c-0.1-0.2-0.1-0.6-0.1-0.8c0-0.6,0.1-1.2,0.5-1.6c0.4-0.4,0.7-0.6,1.2-0.6
				c0.2,0,0.6,0,0.7,0.1c0.2,0.1,0.4,0.2,0.6,0.5v-1.6c0-0.2,0-0.4,0.1-0.5c0.1-0.1,0.2-0.1,0.4-0.1s0.2,0,0.4,0.1
				c0.1,0.1,0.1,0.2,0.1,0.5v4.5c0,0.2,0,0.4-0.1,0.5c-0.1,0.1-0.2,0.1-0.4,0.1s-0.2,0-0.4-0.1C132,49.8,131.9,49.5,131.9,49.4z
				 M129.9,47.8c0,0.2,0,0.5,0.1,0.7c0.1,0.2,0.2,0.4,0.4,0.5c0.1,0.1,0.4,0.1,0.5,0.1c0.2,0,0.4,0,0.5-0.1c0.1-0.1,0.2-0.2,0.4-0.5
				c0.1-0.2,0.1-0.5,0.1-0.7c0-0.2,0-0.5-0.1-0.7c-0.1-0.2-0.2-0.4-0.4-0.5c-0.1-0.1-0.4-0.1-0.5-0.1c-0.2,0-0.4,0-0.5,0.1
				c-0.1,0.1-0.2,0.2-0.4,0.5C130,47.4,129.9,47.6,129.9,47.8z"/>
			<path d="M136.8,48.1h-2c0,0.2,0,0.5,0.1,0.6c0.1,0.1,0.2,0.4,0.4,0.4c0.1,0.1,0.4,0.1,0.5,0.1c0.1,0,0.2,0,0.4,0s0.2-0.1,0.2-0.1
				c0.1-0.1,0.2-0.1,0.2-0.2c0.1-0.1,0.2-0.1,0.4-0.2c0,0,0.1-0.1,0.2-0.1c0.1,0,0.2,0,0.2,0.1c0.1,0,0.1,0.1,0.1,0.2
				c0,0.1,0,0.2-0.1,0.4c-0.1,0.1-0.2,0.2-0.4,0.4c-0.1,0.1-0.4,0.2-0.6,0.2c-0.2,0.1-0.5,0.1-0.7,0.1c-0.7,0-1.2-0.2-1.6-0.6
				c-0.4-0.4-0.6-0.8-0.6-1.6c0-0.4,0-0.6,0.1-0.8s0.2-0.5,0.4-0.7c0.1-0.2,0.4-0.4,0.6-0.5s0.5-0.1,0.8-0.1s0.7,0.1,1.1,0.2
				c0.4,0.1,0.5,0.4,0.6,0.7c0.1,0.2,0.2,0.6,0.2,0.8s-0.1,0.5-0.2,0.5C137.3,48.1,137.1,48.1,136.8,48.1z M134.8,47.5h1.9
				c0-0.4-0.1-0.6-0.2-0.8c-0.1-0.1-0.4-0.2-0.6-0.2s-0.5,0.1-0.6,0.2C134.9,46.9,134.9,47.1,134.8,47.5z"/>
		</g>
	</g>
</g>
</svg>
