<?xml version="1.0" encoding="utf-8"?>
<!-- Generator: Adobe Illustrator 18.1.1, SVG Export Plug-In . SVG Version: 6.00 Build 0)  -->
<svg version="1.1" id="Layer_1" xmlns="http://www.w3.org/2000/svg" xmlns:xlink="http://www.w3.org/1999/xlink" x="0px" y="0px"
	 viewBox="0 0 30 30" enable-background="new 0 0 30 30" xml:space="preserve">
<g>
	<path d="M28.2,23L17.5,4.4c-0.6-1-1.5-1.6-2.5-1.6c-1,0-1.9,0.6-2.5,1.6L1.8,23c-0.6,1-0.7,2.1-0.2,2.9c0.5,0.8,1.4,1.3,2.6,1.3
		h21.5c1.2,0,2.2-0.5,2.6-1.3C28.9,25.1,28.8,24.1,28.2,23z M26.7,25c-0.1,0.2-0.5,0.3-1,0.3H4.2c-0.5,0-0.9-0.1-1-0.3
		c-0.1-0.2,0-0.6,0.2-1L14.2,5.4c0.2-0.4,0.5-0.7,0.8-0.7c0.2,0,0.5,0.3,0.8,0.7L26.5,24C26.8,24.4,26.8,24.8,26.7,25z"/>
	<path d="M15,19.7c-1.1,0-1.9,0.8-1.9,1.9c0,1.1,0.8,1.9,1.9,1.9c1.1,0,1.9-0.8,1.9-1.9C16.9,20.5,16.1,19.7,15,19.7z"/>
	<polygon points="16.3,18.9 16.7,10.3 13.3,10.3 13.7,18.9 	"/>
</g>
</svg>
