<?xml version="1.0" encoding="utf-8"?>
<!-- Generator: Adobe Illustrator 19.2.0, SVG Export Plug-In . SVG Version: 6.00 Build 0)  -->
<svg version="1.1" id="Capa_7" xmlns="http://www.w3.org/2000/svg" xmlns:xlink="http://www.w3.org/1999/xlink" x="0px" y="0px"
	 viewBox="0 0 100 100" style="enable-background:new 0 0 100 100;" xml:space="preserve">
<style type="text/css">
	.st0{fill:#878787;}
</style>
<path class="st0" d="M17,25.4l0.1-0.9h8C25,26.1,25,27.7,25,29.4c0,0.9,0.6,1.4,1.4,1.4s1.4-0.6,1.4-1.4c0-1.7,0-3.3,0.1-4.9h24.9
	c0.1,1.5,0.1,3.1,0.1,4.9c0,0.9,0.6,1.4,1.4,1.4s1.4-0.6,1.4-1.4c0-1.6,0-3.2-0.1-4.9h8l0.6,4.9h0.6c1,0,2.3,0.1,3.7,0.5l-0.9-7.7
	c-0.1-1-1-1.8-2.1-1.8H55.3C54.4,9.6,50.9,0,40.4,0c-10.7,0-14,9.6-15.1,20.3H15.2c-1,0-2,0.9-2.1,1.8l-7,58.6
	c-0.1,0.6,0.1,1.1,0.5,1.6c0.5,0.6,1,0.9,1.6,0.9h23.7l0.7-4.2h-9.2C23.3,78.9,17,25.4,17,25.4z M40.4,2.9c7.1,0,11,5.4,12.2,17.4
	H28.2C29.4,8.3,33.2,2.9,40.4,2.9z M10.5,78.9l5-41.8l5.1,41.8H10.5z"/>
<path class="st0" d="M95.4,86.7l-7-40.3c-0.2-1-1-1.7-2.1-1.7h-10c-1.7-8.1-5.8-12.6-11.7-12.6c-5.9,0-9.9,4.5-11.7,12.6h-9.8
	c-1,0-1.8,0.7-2.1,1.7l-7,40.5c-0.1,0.6,0.1,1.2,0.5,1.7s1,0.9,1.6,0.9h57.3c1.1,0,2.1-1,2.1-2.1C95.5,87.2,95.5,86.9,95.4,86.7z
	 M64.8,35c5.2,0,7.6,4.8,8.8,9.8H56C57.1,39.7,59.6,35,64.8,35z M38.6,85.2l4.9-28.1l4.9,28.1H38.6z M44.9,49h7.5
	c-0.1,1.7-0.2,3.6-0.2,5.5c0,0.7,0.6,1.4,1.4,1.4s1.4-0.6,1.4-1.4c0-1.5,0.1-3.4,0.2-5.5h19c0.2,2.1,0.2,4.2,0.2,5.5
	c0,0.9,0.6,1.4,1.4,1.4s1.4-0.6,1.4-1.4c0-2-0.1-3.8-0.2-5.5h7.6l5,29.3H50L44.9,49z M51.2,85.2l-1-5.5H90l1,5.5
	C90.8,85.2,51.2,85.2,51.2,85.2z"/>
</svg>
