<?xml version="1.0" encoding="utf-8"?>
<!-- Generator: Adobe Illustrator 20.1.0, SVG Export Plug-In . SVG Version: 6.00 Build 0)  -->
<svg version="1.1" id="Layer_1" xmlns="http://www.w3.org/2000/svg" xmlns:xlink="http://www.w3.org/1999/xlink" x="0px" y="0px"
	 viewBox="0 0 472.9 209.1" style="enable-background:new 0 0 472.9 209.1;" xml:space="preserve">
<title>mi_negocio_blk</title>
<path d="M101.6,183.4h-8.1v-35c0-5-1.9-9.3-5.6-13s-7.9-5.5-12.8-5.5s-9.3,1.8-13,5.5s-5.5,8-5.5,13v35h-8.1v-34.1
	c0-7.8,2.5-14.2,7.6-19.3c5-5.1,11.3-7.8,19-7.8c7.6,0,13.9,2.6,18.9,7.8c5,5.1,7.6,11.6,7.6,19.3V183.4z"/>
<path d="M170.5,163.8c-2.2,6.4-6,11.6-11.3,15.3c-5.4,3.8-11.2,5.7-17.7,5.8c-8.2,0.1-15.4-2.8-21.7-8.9c-6.3-6.2-9.6-13.4-9.7-21.9
	c-0.2-8.9,2.9-16.7,9.5-23.1c6.6-6.5,14.3-9.6,23.2-9c8,0.5,14.9,3.8,20.8,9.9c5.7,6,8.5,12.7,8.5,20.2v4.3h-53.8
	c0.6,6,3.2,11,7.7,14.9s9.8,5.9,15.9,5.8c9.5-0.1,16.2-4.5,20.3-13.1h8.3V163.8z M164.1,148.9c-1.2-5.6-3.8-10.1-7.9-13.5
	c-4.1-3.5-9-5.2-14.8-5.4c-5.8-0.1-10.8,1.7-15.1,5.1c-4.3,3.5-6.9,8.1-8.1,13.8L164.1,148.9L164.1,148.9z"/>
<path d="M240.6,180.6c0,7.6-3.2,13.9-9.3,18.8s-13.2,7.4-21.2,7c-7.1-0.3-13.3-2.4-18.5-6.5c-4.9-3.9-8.2-8.9-9.9-15h7.8
	c1.2,4.1,3.9,7.7,8,10.6c4.1,3,8.6,4.5,13.5,4.5c5.9-0.1,10.9-2.1,15.2-6.2c4.3-4,6.5-8.8,6.5-14.4v-5.7
	c-5.9,6.7-13.2,10.3-22.1,10.6c-8.6,0.3-16.1-2.7-22.3-8.9c-6.2-6.3-9.3-13.9-9.3-22.6c0-8.4,2.8-15.6,8.6-21.7s12.9-9.2,21.2-9.6
	c8.6-0.2,16.1,2.8,22.4,9.1c6.4,6.2,9.5,13.7,9.3,22.3v27.7L240.6,180.6z M225.8,169.8c4.3-4.5,6.6-9.9,6.7-16.2
	c0.2-6.6-2-12.3-6.7-17.2c-4.6-4.9-10.2-7.2-16.8-6.9c-6.2,0.3-11.3,2.8-15.6,7.6c-4.3,4.7-6.4,10.2-6.3,16.5
	c0.1,6.4,2.4,11.8,6.9,16.3s9.9,6.7,16.2,6.7C216.4,176.5,221.5,174.3,225.8,169.8L225.8,169.8z"/>
<path d="M301.1,175.9c-6.2,6.2-13.7,9.2-22.3,8.9c-8.3-0.2-15.4-3.4-21.2-9.5S249,162,249,153.6c0-8.7,3.2-16.3,9.3-22.5
	c6.2-6.3,13.7-9.3,22.3-9c8.3,0.3,15.4,3.5,21.2,9.7c5.8,6.1,8.7,13.3,8.7,21.7C310.6,162.1,307.4,169.6,301.1,175.9L301.1,175.9z
	 M279,176.9c6.6,0.3,12.2-1.9,16.8-6.8c4.7-4.9,6.9-10.6,6.8-17.2c-0.2-6.3-2.5-11.7-6.8-16.2s-9.5-6.7-15.5-6.7
	c-6.4-0.1-11.8,2.2-16.3,6.7s-6.7,9.9-6.8,16.3c-0.1,6.3,1.9,11.9,6.2,16.6S272.8,176.7,279,176.9L279,176.9z"/>
<path d="M379.9,167.6c-6.3,11.7-16.1,17.3-29.2,17.2c-8.7-0.1-16.2-3.2-22.5-9.1c-6.3-6-9.5-13.3-9.6-21.9
	c-0.1-8.7,2.9-16.1,9.2-22.3c6.4-6.2,14-9.5,22.8-9.6c6.3-0.1,12.2,1.6,17.6,4.9c5.1,3.3,8.9,7.2,11.1,12.2l1.2,2.6h-9
	c-4.5-7.7-11.3-11.7-20.6-11.9c-6.2-0.1-11.7,2.1-16.6,6.7c-5.1,4.7-7.7,10.4-7.7,16.9s2.4,12.1,7.1,16.8c4.7,4.6,10.4,6.9,16.9,6.8
	c9.3-0.1,16.3-3.9,20.9-11.2h9L379.9,167.6L379.9,167.6z"/>
<path d="M392.8,116.4h-7.9v-14h7.9V116.4z M392.8,183.4h-7.9v-59.9h7.9V183.4z"/>
<path d="M453.7,175.9c-6.2,6.2-13.6,9.2-22.3,8.9c-8.3-0.2-15.4-3.4-21.2-9.5s-8.6-13.3-8.6-21.7c0-8.7,3.2-16.3,9.3-22.5
	c6.2-6.3,13.7-9.3,22.3-9c8.3,0.3,15.4,3.5,21.2,9.7c5.8,6.1,8.7,13.3,8.7,21.7C463.1,162.1,460,169.6,453.7,175.9L453.7,175.9z
	 M431.5,176.9c6.6,0.3,12.2-1.9,16.8-6.8c4.7-4.9,6.9-10.6,6.8-17.2c-0.2-6.3-2.5-11.7-6.8-16.2s-9.5-6.7-15.5-6.7
	c-6.4-0.1-11.8,2.2-16.3,6.7s-6.7,9.9-6.8,16.3c-0.1,6.3,1.9,11.9,6.2,16.6S425.3,176.7,431.5,176.9L431.5,176.9z"/>
<path d="M105.4,118.2H95.2v-45c0-5.7-1.7-10.5-4.9-14.5s-7.6-6-12.8-6c-5.4,0-10,1.8-14,5.3c-3.9,3.5-5.8,7.8-5.8,13.1v47.2H47.4V71
	c0-5.3-1.9-9.6-5.9-13.1c-3.9-3.5-8.5-5.3-13.9-5.3c-5.3,0-9.5,2.1-12.7,6c-3.2,4-4.8,8.7-4.8,14.5v45H0V74.4
	c0-9.1,2.6-16.6,7.8-22.1c4.9-5.3,11.3-8.2,19.3-8.9c10.7-0.9,19.1,3.7,25.4,13.6c6.3-9.9,14.8-14.5,25.4-13.6
	c8,0.6,14.4,3.6,19.4,8.9c5.3,5.5,8,13,8,22.1L105.4,118.2L105.4,118.2z"/>
<path d="M139.4,80l-28.1,35.8c-0.5,0.6-0.2,1,0.5,0.9l16-2c0.7-0.1,1.7-0.6,2.1-1.2l19.9-25.3L139.4,80L139.4,80z"/>
<path d="M189.7,59.5l8.1-10.3c7.6-0.7,14.7-4.4,19.7-10.3c0.9-1.1,1.4-2.5,1.2-4c-0.1-1.4-0.9-2.7-2-3.6l-38-29.8
	c-1.1-0.9-2.6-1.3-4-1.1s-2.7,1-3.6,2.1c-4.5,6.3-6.4,14-5.3,21.6l-8.1,10.3c-13.8-1.8-27.7,3.8-36.4,14.8c-0.1,0.1-0.2,0.2-0.3,0.4
	l-0.1,0.1c-1.7,2.3-1.3,5.6,0.9,7.4l54.1,42.5c2.3,1.8,5.6,1.4,7.4-0.9l0.3-0.3C192.5,87.4,194.6,72.5,189.7,59.5L189.7,59.5z
	 M133.1,52.3c6.9-6.2,16.6-8.9,25.8-6.9c2,0.4,4-0.3,5.3-1.9l11.5-14.6c1-1.3,1.4-2.9,1-4.5c-0.9-3.5-0.7-7.2,0.5-10.6l28,22
	c-3,1.9-6.5,3-10.1,3c-1.6,0-3.1,0.7-4.1,2l-11.5,14.6c-1.3,1.6-1.5,3.8-0.6,5.6c4.1,8.5,3.8,18.5-0.6,26.7L133.1,52.3L133.1,52.3z"
	/>
<path d="M327.7,194.9v10.4c0,0.8,0,1.6,0.1,2.2h-1.4l-0.1-1.5h-0.1c-0.5,1-1.5,1.7-2.9,1.7c-2.1,0-3.7-1.8-3.7-4.4
	c0-2.9,1.8-4.6,3.9-4.6c1.3,0,2.2,0.6,2.6,1.3v-5.2h1.6V194.9z M326.2,202.5c0-0.2,0-0.5-0.1-0.7c-0.2-1-1.1-1.8-2.3-1.8
	c-1.6,0-2.6,1.4-2.6,3.3c0,1.7,0.9,3.2,2.6,3.2c1.1,0,2-0.7,2.3-1.9c0.1-0.2,0.1-0.4,0.1-0.7V202.5L326.2,202.5z"/>
<path d="M331.3,203.6c0,2.1,1.4,3,3,3c1.1,0,1.8-0.2,2.4-0.4l0.3,1.1c-0.6,0.2-1.5,0.6-2.9,0.6c-2.7,0-4.2-1.8-4.2-4.4
	s1.5-4.6,4.1-4.6c2.8,0,3.6,2.5,3.6,4.1c0,0.3,0,0.6-0.1,0.7h-6.2L331.3,203.6z M335.9,202.4c0-1-0.4-2.5-2.2-2.5
	c-1.6,0-2.3,1.4-2.4,2.5H335.9z"/>
<path d="M381.7,191.7c-2.7,0-4.9,2.2-4.9,4.9c0,2.7,4.9,11.2,4.9,11.2s4.9-8.5,4.9-11.2C386.6,193.9,384.4,191.7,381.7,191.7z
	 M381.7,199.3c-1.5,0-2.7-1.2-2.7-2.7s1.2-2.7,2.7-2.7c1.5,0,2.7,1.2,2.7,2.7S383.2,199.3,381.7,199.3z"/>
<polygon points="393.6,200 392.2,191.7 388.1,191.7 388.1,207.8 390.4,207.8 390.4,197.6 392.5,207.8 395.9,207.8 395.9,191.7 
	393.6,191.7 "/>
<path d="M365,199.8v4.9c0,4.4,6.3,3.8,6.3,0.5v-3.6h-2.5v3.3c0,1.3-1.2,1.3-1.2-0.1v-5v-5c0-1.3,1.2-1.3,1.2-0.1v3.3h2.5v-3.6
	c0-3.3-6.3-3.9-6.3,0.4V199.8L365,199.8z"/>
<path d="M357.2,199.8v4.9c0,4.4,6.3,3.8,6.3,0.5v-3.6H361v3.3c0,1.3-1.2,1.3-1.2-0.1v-5v-5c0-1.3,1.2-1.3,1.2-0.1v3.3h2.5v-3.6
	c0-3.3-6.3-3.9-6.3,0.4V199.8L357.2,199.8z"/>
<polygon points="355.7,191.7 350.9,191.7 350.9,207.8 355.7,207.8 355.7,205.1 353.4,205.1 353.4,201.2 355.7,201.2 355.7,198.2 
	353.4,198.2 353.4,194.9 355.7,194.9 "/>
<path d="M349.4,197.8v-3.5c0-3.5-6.2-3.5-6.2,0v2.2c0,1.3,0.7,2.1,0.8,2.3c0.2,0.3,2,2.4,2.3,3c0.6,0.9,0.6,1.2,0.6,2.8
	c0,1.4-1.3,1.4-1.3,0v-3.1h-2.5v3.6c0,3.6,6.3,3.6,6.3,0c0-0.7,0.3-3.1-0.7-4.2c-0.8-1-2.2-2.7-2.6-3.4c-0.6-0.8-0.5-1.4-0.5-2.9
	c0-0.9,1.3-1,1.3,0v3.3h2.5L349.4,197.8L349.4,197.8z"/>
<polygon points="372.8,191.7 375.3,191.7 375.3,207.8 372.8,207.8 "/>
<path d="M457.9,116.3c0.4-0.9,1-1.8,1.7-2.5s1.5-1.2,2.5-1.6s2-0.6,3-0.6s2.1,0.2,3,0.6s1.8,0.9,2.5,1.6s1.3,1.5,1.7,2.5
	c0.4,0.9,0.6,2,0.6,3.1s-0.2,2.2-0.6,3.1c-0.4,1-1,1.8-1.7,2.5s-1.5,1.2-2.5,1.6c-0.9,0.4-1.9,0.6-3,0.6s-2.1-0.2-3-0.6
	c-1-0.4-1.8-0.9-2.5-1.6s-1.3-1.5-1.7-2.5s-0.6-2-0.6-3.1C457.3,118.2,457.5,117.2,457.9,116.3z M459.2,122c0.3,0.8,0.8,1.5,1.4,2.1
	s1.3,1.1,2,1.4c0.8,0.3,1.6,0.5,2.5,0.5s1.7-0.2,2.5-0.5s1.5-0.8,2-1.4c0.6-0.6,1-1.3,1.4-2.1c0.3-0.8,0.5-1.7,0.5-2.7
	c0-0.9-0.2-1.8-0.5-2.6s-0.8-1.5-1.4-2.1s-1.3-1.1-2-1.4c-0.8-0.3-1.6-0.5-2.5-0.5s-1.8,0.2-2.5,0.5c-0.8,0.3-1.5,0.8-2,1.4
	c-0.6,0.6-1,1.3-1.4,2.1c-0.3,0.8-0.5,1.7-0.5,2.6C458.7,120.3,458.8,121.2,459.2,122z M465.6,114.8c1.1,0,1.9,0.2,2.4,0.6
	s0.8,1.1,0.8,2c0,0.8-0.2,1.4-0.7,1.8s-1,0.6-1.7,0.7l2.6,4h-1.5L465,120h-1.5v3.9h-1.4v-9.1H465.6L465.6,114.8z M465,118.8h0.9
	c0.3,0,0.5-0.1,0.8-0.2c0.2-0.1,0.4-0.2,0.5-0.4s0.2-0.5,0.2-0.8s-0.1-0.5-0.2-0.7s-0.3-0.3-0.5-0.4s-0.4-0.2-0.6-0.2
	s-0.5-0.1-0.7-0.1h-1.9v2.9h1.5L465,118.8z"/>
<g>
	<path d="M423.1,191.7l-1.9,16.1h2.5l0.3-3.9h1.2l0.3,3.9h2.5l-1.4-16.1H423.1z M424.3,201.3l0.5-5.3l0.4,5.3H424.3z"/>
	<path d="M461.6,191.7h-3.5l-1.9,16.1h2.5l0.3-3.9h1.3l0.3,3.9h2.5L461.6,191.7z M459.3,201.3l0.5-5.3l0.4,5.3H459.3z"/>
	<path d="M403,191.7l-1.9,16.1h2.5l0.3-3.9h1.2l0.3,3.9h2.5l-1.4-16.1H403z M404.2,201.3l0.5-5.3l0.4,5.3H404.2z"/>
	<polygon points="414.7,199.9 413.7,191.7 409.6,191.7 409.6,207.8 412,207.8 412,198.3 413.3,207.8 415.8,207.8 417.2,198.3 
		417.2,207.8 419.7,207.8 419.7,191.7 415.8,191.7 	"/>
	<rect x="437.4" y="191.7" width="2.8" height="16.1"/>
	<polygon points="451.8,191.7 449,191.7 449,207.8 454.7,207.8 454.7,205.1 451.8,205.1 	"/>
	<polygon points="444.5,191.7 441.7,191.7 441.7,207.8 447.5,207.8 447.5,205.1 444.5,205.1 	"/>
	<path d="M436,201.5c0-0.8,0-2.6-1.6-2.6c0,0,1.6-0.2,1.6-3.6c0-3-1-3.7-3.6-3.7h-2h-0.7h-0.1v6.7v0v0.2v9.2h2.6v-7.2
		c0-0.8,1.1,0.3,1.1,0.9v4.8c0,0.9,0.4,1.4,0.4,1.4h2.6c0,0-0.3-0.5-0.3-1.4V201.5z M432.2,197.8v-3.7c0,0,1.1-0.3,1.1,1.8
		S432.2,197.8,432.2,197.8z"/>
</g>
</svg>
