<?xml version="1.0" encoding="utf-8"?>
<!-- Generator: Adobe Illustrator 23.0.1, SVG Export Plug-In . SVG Version: 6.00 Build 0)  -->
<svg version="1.1" id="Layer_1" xmlns="http://www.w3.org/2000/svg" xmlns:xlink="http://www.w3.org/1999/xlink" x="0px" y="0px"
	 viewBox="0 0 479 167" style="enable-background:new 0 0 479 167;" xml:space="preserve">
<style type="text/css">
	.st0{fill:#FFD100;}
</style>
<g>
	<g>
		<path class="st0" d="M233.9,80c-1.4,3.7-6.9,15.1-18.9,19.5c-6.5,2.5-12.9,2.8-19.7,2.8h-26.5v35.4h-34.5V29h62
			c10.6,0,20.5,0.8,28.9,8.2c10.9,9.4,11.2,22.5,11.2,27.2C236.5,66.6,236.3,73.5,233.9,80z M200.6,57.9c-3.4-6.2-10.6-6.2-12.5-6.2
			h-19.4v27.7h19.5c0.5,0,3.8-0.2,6.2-0.9c3.1-1.1,7.8-4.5,7.8-13.1C202.3,64.3,202.3,61,200.6,57.9z"/>
		<path class="st0" d="M242.8,137.7V29h31.9v108.6h-31.9V137.7z"/>
		<path class="st0" d="M343.9,137.7V126c-1.1,2.2-1.8,4.2-5.4,7.1c-3.7,3.1-9.8,6.6-20.9,6.6c-2.9,0-13.2-0.2-21.1-6.8
			c-2.2-1.8-5.8-5.8-7.7-12.9c-0.9-3.2-1.4-6.6-1.4-13.5V58h31.9v43.4c0,3.7-0.3,12.9,11.5,12.9c3.1,0,6.2-0.8,8.2-2.8
			c3.7-3.8,3.2-10.6,3.2-11.4V57.9h31.9v79.7L343.9,137.7L343.9,137.7z"/>
		<path class="st0" d="M458.1,124c-9.1,16.5-30.3,16.8-34.6,16.8c-11.8,0-24-3.4-34-9.7c-3.1-1.8-5.8-4.2-8.8-6.3l17.8-16.2
			c1.5,1.4,2.9,2.6,4.5,3.8c2.6,1.8,10.5,6.8,20.2,6.8c0.8,0,3.2,0,5.2-0.9c2.3-1.1,3.1-3.1,3.1-4.2c0-0.9-0.5-1.7-0.6-1.8
			c-2-3.1-5.5-2.8-11.5-3.8c-1.8-0.3-9.4-1.8-15.7-4c-7.4-2.5-13.1-5.4-16.6-12.9c-1.4-3.1-2.2-6.2-2.2-9.5c0-6.9,3.2-12.2,4.6-14.2
			c4.6-6.5,13.7-13.1,31.5-13.1c9.5,0,21.7,2,30.3,6.5c2.9,1.5,5.1,3.1,7.7,5.1l-17.1,15.5c-2.3-1.5-10.8-7.7-20.5-7.7
			c-0.6,0-2.8,0-4.5,0.8c-1.8,0.9-2.3,2.6-2.3,3.4c0,2,1.7,2.9,2.2,3.1c1.4,0.8,4.5,1.4,8.3,2.3c11.7,2.9,18.5,4,23.5,6.6
			c4,2,12.6,8.2,12.6,20.8C461.3,115.6,460.4,119.8,458.1,124z"/>
	</g>
</g>
<path class="st0" d="M125.6,67.2c-2.4-7.1-10.1-10.9-17.2-8.5c-4.6,1.6-7.8,5.3-8.8,9.7c-1.3,4.3-4.6,8-9.1,9.5
	c-4.7,1.6-9.5,0.6-13.2-2c-0.4-0.3-0.7-0.5-1.1-0.8c-3.8-2.6-6.4-6.9-6.4-11.9c0-4.6,2.1-8.6,5.4-11.3c4.2-2.3,7.1-6.8,7-12
	c0-7.5-6.2-13.5-13.6-13.5c-7.5,0-13.5,6.2-13.5,13.7c0,4.8,2.6,9,6.4,11.4c3.7,2.6,6.1,6.9,6.1,11.7c0,5-2.5,9.3-6.2,12
	c-0.1,0.1-0.3,0.2-0.4,0.3c-0.1,0.1-0.1,0.1-0.2,0.2s-0.2,0.2-0.3,0.2c-3.7,2.6-8.5,3.6-13.2,2c-4.5-1.5-7.8-5.2-9.1-9.5
	c-1-4.4-4.2-8.1-8.8-9.7c-7.1-2.4-14.8,1.4-17.2,8.5s1.4,14.8,8.5,17.2c4.9,1.6,10.1,0.4,13.6-2.9c3.5-2.3,8.1-3,12.4-1.5
	c4.2,1.4,7.2,4.6,8.7,8.3c0.1,0.9,0.3,1.7,0.6,2.6c0.2,0.7,0.5,1.3,0.8,1.9c1.3,4.1,0.8,8.7-1.8,12.5c-2.6,3.8-6.6,5.9-10.8,6.3
	c-4.8-0.5-9.7,1.6-12.6,5.9c-4.2,6.2-2.6,14.6,3.6,18.8s14.6,2.6,18.8-3.6c2.7-4,3-8.9,1.2-13c-1.6-4.2-1.1-9.1,1.6-13.1
	c2.8-4.1,7.3-6.3,11.9-6.3v-0.1c0.1,0,0.1,0,0.2,0s0.1,0,0.2,0v0.1c4.6,0,9.1,2.2,11.9,6.3c2.7,4,3.2,8.9,1.6,13.1
	c-1.8,4.1-1.5,9,1.2,13c4.2,6.2,12.6,7.8,18.8,3.6c6.2-4.2,7.8-12.6,3.6-18.8c-2.9-4.3-7.8-6.4-12.6-5.9c-4.2-0.4-8.2-2.5-10.8-6.3
	C80.2,101.5,79.7,97,81,93c0.7-1.3,1.2-2.8,1.4-4.4c0-0.1,0-0.2,0-0.2c1.5-3.8,4.5-6.9,8.7-8.3c4.3-1.5,8.9-0.8,12.4,1.5
	c3.5,3.3,8.7,4.5,13.6,2.9C124.2,82,128,74.3,125.6,67.2z M68.8,44.9c-2.6,0-4.7-2.1-4.7-4.7s2.1-4.7,4.7-4.7s4.7,2.1,4.7,4.7
	S71.4,44.9,68.8,44.9z"/>
</svg>
