<?xml version="1.0" encoding="utf-8"?>
<!-- (c) ammap.com | SVG map of Cuba - High -->
<svg xmlns="http://www.w3.org/2000/svg" xmlns:amcharts="http://amcharts.com/ammap" xmlns:xlink="http://www.w3.org/1999/xlink" version="1.1">
	<defs>
		<style type="text/css">
			.land
			{
				fill: #CCCCCC;
				fill-opacity: 1;
				stroke:white;
				stroke-opacity: 1;
				stroke-width:0.5;
			}
		</style>

		<amcharts:ammap projection="mercator" leftLongitude="-84.951889" topLatitude="23.276752" rightLongitude="-74.132223" bottomLatitude="19.825899"></amcharts:ammap>
        
		<!-- All areas are listed in the line below. You can use this list in your script. -->
		<!--{id:"CUB-1"},{id:"CUB-2"},{id:"CUB-3"},{id:"CUB-4"},{id:"CUB-5"},{id:"CUB-6"},{id:"CUB-7"},{id:"CUB-8"},{id:"CUB-9"},{id:"CUB-10"},{id:"CUB-11"},{id:"CUB-12"},{id:"CUB-13"},{id:"CUB-14"},{id:"CUB-15"},{id:"CUB-16"}-->

	</defs>
	<g>
		<path id="CUB-1" title="Mayabeque" class="land" d="M-120.45,-1703.49L-120.45,-1703.49L-120.55,-1702.86L-121.27,-1701.91L-120.36,-1697.83L-120.23,-1696.84L-120.21,-1696.3L-120.32,-1696.27L-120.51,-1696.34L-121.2,-1696.75L-121.57,-1696.74L-121.94,-1696.53L-122.44,-1695.82L-122.58,-1695.43L-122.54,-1695.14L-121.93,-1694.64L-121.61,-1694.22L-121.59,-1694L-121.77,-1693.77L-122.05,-1693.65L-122.71,-1692.72L-124.16,-1691.72L-124.56,-1691.37L-124.6,-1691.31L-124.68,-1691.15L-124.8,-1690.87L-124.98,-1690.27L-124.86,-1690.02L-124.61,-1689.88L-123.82,-1689.78L-123.3,-1689.58L-122.78,-1689.17L-122.22,-1688.65L-121.05,-1687.13L-120.22,-1685.9L-120.16,-1685.66L-120.11,-1685.13L-120.18,-1684.81L-120.36,-1682.59L-121.28,-1679.69L-120.11,-1677.59L-119.01,-1676.55L-118.09,-1675.89L-117.79,-1675.46L-117.79,-1674.98L-118.57,-1673.02L-118.6,-1671.83L-118.18,-1671.1L-115.48,-1669.43L-114.31,-1668.39L-114.18,-1667.23L-114.73,-1663.31L-114.87,-1662.77L-115.1,-1662.2L-115.51,-1661.52L-116.12,-1660.72L-117.04,-1659.23L-117.28,-1659L-117.59,-1658.77L-117.83,-1658.66L-117.89,-1658.61L-117.97,-1658.48L-118.08,-1658.32L-118.58,-1658.49L-119.65,-1658.52L-121.61,-1660.22L-122.95,-1661.31L-125.42,-1663.2L-127.93,-1664.13L-134.3,-1666.43L-136.8,-1666.34L-142.53,-1665.81L-150.13,-1664.51L-152.43,-1665.51L-157.29,-1666.9L-162.72,-1666.89L-165.75,-1666.53L-167.31,-1666.35L-168.8,-1666.52L-171.07,-1667.11L-170.81,-1668.75L-171.05,-1669.73L-171.99,-1670.32L-172.89,-1670.85L-174.35,-1672.91L-175.81,-1675.92L-175.81,-1678.78L-175.23,-1681.31L-174.35,-1683.22L-174.35,-1685.28L-174.25,-1687.97L-173.09,-1688.44L-172.54,-1688.61L-172.04,-1688.28L-171.27,-1687.33L-170.87,-1687.24L-170.38,-1687.45L-169.44,-1688.29L-169.16,-1688.84L-168.52,-1689.48L-165.71,-1689.22L-163.87,-1689.34L-163.12,-1689L-162.41,-1688.91L-161.56,-1688.91L-160.93,-1689.16L-160.5,-1689.76L-159.96,-1690.76L-157.52,-1693.48L-157.46,-1693.76L-157.56,-1694.13L-158.16,-1695.38L-158.27,-1696.06L-158.24,-1696.56L-158.07,-1697.21L-158.02,-1697.6L-158.03,-1697.98L-158.14,-1698.28L-158.19,-1698.5L-158.11,-1698.61L-157.7,-1698.64L-157.3,-1698.21L-156.79,-1697.48L-156.55,-1697.44L-156.14,-1697.72L-155.67,-1698.16L-155.31,-1699.13L-155.23,-1699.55L-155.11,-1699.8L-154.86,-1700.04L-154.56,-1700.14L-153.93,-1699.82L-153.51,-1699.52L-151,-1696.55L-150.31,-1697.82L-150.22,-1699.14L-150.13,-1699.49L-149.96,-1699.71L-149.57,-1700.04L-149.5,-1700.37L-149.7,-1701.07L-149.73,-1701.51L-149.56,-1701.78L-148.88,-1701.82L-148.51,-1702.13L-149.72,-1703.65L-150.12,-1704.34L-149.99,-1705.12L-150.22,-1705.88L-150.22,-1705.88L-149.38,-1706.1L-147.71,-1706.27L-146.99,-1706.44L-146.21,-1706.74L-145.44,-1706.88L-144.74,-1706.53L-142.05,-1704.62L-139.93,-1704.01L-135.34,-1703.56L-133.22,-1703.03L-131.62,-1703.56L-120.45,-1703.49z"/>
		<path id="CUB-2" title="Villa Clara" class="land" d="M30.76,-1676.08L30.76,-1676.08L34.48,-1671.85L36.03,-1670.57L39.32,-1669.55L42,-1667.33L44.92,-1666.19L46.36,-1664.69L47.53,-1662.94L48.15,-1661.53L46.53,-1662.99L45.96,-1663.17L45.33,-1663.3L44.67,-1663.6L43.71,-1664.23L42.65,-1665.18L40.25,-1667.88L38.96,-1667.41L37.64,-1667.56L36.42,-1668.16L34.79,-1669.43L34.33,-1669.61L34.05,-1669.94L33.94,-1670.83L33.7,-1671.1