<?xml version="1.0" encoding="utf-8"?>
<!-- Generator: Adobe Illustrator 19.2.0, SVG Export Plug-In . SVG Version: 6.00 Build 0)  -->
<svg version="1.1" id="Capa_1" xmlns="http://www.w3.org/2000/svg" xmlns:xlink="http://www.w3.org/1999/xlink" x="0px" y="0px"
	 viewBox="0 0 400 400" style="enable-background:new 0 0 400 400;" xml:space="preserve">
<style type="text/css">
	.st0{display:none;}
	.st1{display:inline;}
</style>
<g id="top_sponsor" class="st0">
	<g class="st1">
		<path d="M198.5,242.5c67,0,121.3-54.3,121.3-121.3C319.8,54.3,265.5,0,198.5,0S77.2,54.3,77.2,121.3S131.5,242.5,198.5,242.5z
			 M177.7,99.2L198.6,57l20.9,42.2l46.8,6.9l-33.8,33l7.9,46.5l-41.8-21.9l-41.8,21.9l7.9-46.5l-33.8-33L177.7,99.2z"/>
		<path d="M282.3,225.4c-14.7,11.8-31.9,20.5-50.7,25.3c-10.6,2.7-21.7,4.3-33.1,4.3c-10.2,0-20.1-1.3-29.7-3.4l31.2,65.6l39.3,82.8
			l29.7-61.3l68.9,14.9L282.3,225.4z"/>
		<path d="M117,227.1L62.1,353.5l68.9-14.9l29.7,61.3l32.4-68.2l-40.4-85C139.7,242,127.7,235.4,117,227.1z"/>
	</g>
</g>
<g id="libro" class="st0">
	<g class="st1">
		<path d="M91.7,246.6c20.9-12.8,64.1-23.2,108.3,8.1c44.1-31.4,87.4-20.9,108.3-8.1c15.1,9.3,51.1,34.8,85.9,22.1l-60.4-162.6
			c-11.6,10.5-41.7,13.3-60.4,1.2c-26.7-17.4-56-10.5-73.4,15.1c-17.4-25.6-46.8-32.5-73.4-15.1c-18.7,12.2-48.8,9.3-60.4-1.2
			L5.8,268.7C40.6,281.4,76.6,255.9,91.7,246.6z"/>
		<path d="M308.3,267.5c-27.9-18.6-83.9-17.4-108.3,4.6c-24.4-22.1-80.4-23.2-108.3-4.6c-13.2,8.8-47.6,34.8-91.7,19.7v15.1h400
			v-15.1C355.9,302.3,321.4,276.3,308.3,267.5z"/>
	</g>
</g>
<g id="papel_web" class="st0">
	<g class="st1">
		<path d="M21.7,334.4V17.7h156.8v75.6c0,4.9,4,8.9,8.9,8.9H263v39.7h17.7V93.3c0-0.3,0-0.6,0-0.9c0-0.2-0.1-0.4-0.1-0.6
			c0-0.1,0-0.1,0-0.2c-0.1-0.3-0.1-0.5-0.2-0.8v-0.1c-0.1-0.3-0.2-0.5-0.3-0.7c0,0,0,0,0-0.1c-0.1-0.2-0.2-0.5-0.3-0.7
			c0,0,0-0.1-0.1-0.1c-0.1-0.2-0.2-0.4-0.3-0.6c0-0.1-0.1-0.1-0.1-0.2c-0.1-0.2-0.2-0.3-0.4-0.5c0-0.1-0.1-0.1-0.1-0.2
			c-0.2-0.2-0.3-0.4-0.5-0.6c0,0,0-0.1-0.1-0.1L193.7,2.6c0,0-0.1,0-0.1-0.1c-0.2-0.2-0.4-0.4-0.6-0.5c-0.1-0.1-0.1-0.1-0.2-0.1
			c-0.2-0.1-0.3-0.3-0.5-0.4c-0.1,0-0.1-0.1-0.2-0.1c-0.2-0.1-0.4-0.2-0.6-0.3c0,0-0.1,0-0.1-0.1c-0.2-0.1-0.4-0.2-0.7-0.3h-0.1
			c-0.2-0.1-0.5-0.2-0.7-0.3h-0.1c-0.2-0.1-0.5-0.1-0.7-0.2c-0.1,0-0.2,0-0.2,0c-0.2,0-0.4-0.1-0.6-0.1c-0.3,0-0.6,0-0.9,0H12.8
			C7.9,0,4,4,4,8.9v334.4c0,4.9,4,8.9,8.9,8.9h148.4c-3.8-5.6-7.3-11.6-10.2-17.7L21.7,334.4L21.7,334.4z M196.3,30.3l54.2,54.2
			h-54.2V30.3z"/>
		<path d="M395.7,268.3c-4-61.7-53.3-111-115-115.1V153h-16.4v0.3c-61.7,4.1-111,53.4-115.1,115.1H149v16.4h0.3
			c4.1,61.7,53.4,111,115.1,115v0.3h16.4v-0.3c61.7-4,111-53.3,115-115h0.3v-16.4h-0.4V268.3z M226.4,179.9
			c-8,10.5-14.6,23.8-19.4,38.9h-24.7C193,202.1,208.3,188.5,226.4,179.9z M173.7,235.3h28.9c-2.2,10.4-3.6,21.5-4.1,33h-32.7
			C166.7,256.6,169.4,245.6,173.7,235.3z M165.8,284.7h32.7c0.5,11.5,1.8,22.6,4.1,33h-28.9C169.4,307.4,166.7,296.3,165.8,284.7z
			 M182.3,334.1h24.6c4.8,15.1,11.4,28.4,19.5,38.9C208.3,364.5,193,350.9,182.3,334.1z M264.3,382.5c-17-4.5-31.5-22.7-40.4-48.3
			h40.4V382.5z M264.3,317.7h-45c-2.3-10.3-3.8-21.3-4.3-33h49.3V317.7z M264.3,268.3H215c0.5-11.7,1.9-22.7,4.3-33h45V268.3z
			 M264.3,218.8H224c8.8-25.7,23.4-43.8,40.4-48.3v48.3H264.3z M362.7,218.8h-24.6c-4.8-15.1-11.4-28.4-19.5-38.9
			C336.8,188.5,352,202.1,362.7,218.8z M280.7,170.5c17,4.5,31.5,22.7,40.4,48.3h-40.4V170.5z M280.7,235.3h45
			c2.3,10.3,3.7,21.3,4.3,33h-49.3V235.3z M280.7,284.7H330c-0.5,11.7-1.9,22.7-4.3,33h-45V284.7z M280.7,382.5v-48.3h40.4
			C312.2,359.8,297.7,378,280.7,382.5z M318.7,373.1c8-10.6,14.6-23.8,19.5-38.9h24.6C352,350.9,336.8,364.5,318.7,373.1z
			 M371.3,317.7h-28.9c2.3-10.4,3.6-21.5,4.1-33h32.7C378.3,296.3,375.6,307.4,371.3,317.7z M346.5,268.3c-0.5-11.5-1.8-22.6-4.1-33
			h28.9c4.3,10.3,7,21.3,7.9,33H346.5z"/>
	</g>
</g>
<g id="pyme_integral" class="st0">
	<g class="st1">
		<path d="M91.7,292.1c20.9-12.8,64.1-23.2,108.3,8.1c44.1-31.4,87.4-20.9,108.3-8.1c15.1,9.3,51.1,34.8,85.9,22.1l-60.4-162.6
			c-8.6,7.7-27.2,11.3-43.9,7.8c-2.4,5.4-5.5,10.4-9.1,14.9c-8.3,10.3-19.1,17.2-31.4,20.2c0.3,0.7,0.7,1.4,0.9,2.2l0.2,0.4l1.6,5
			c3.5,11.2-1.9,22.1-13.2,26.6c-13.8,5.5-27.3,7.8-45.1,7.8c-23.5,0-45.6-8.3-62.3-23.4c-15.2-13.7-24.6-31.8-27.7-52.8
			c-14.9,1.6-30.1-2-37.7-8.8L5.8,314.1C40.6,326.9,76.6,301.3,91.7,292.1z"/>
		<path d="M308.3,313c-27.9-18.6-83.9-17.4-108.3,4.6c-24.4-22.1-80.4-23.2-108.3-4.6c-13.2,8.8-47.6,34.8-91.7,19.7v15.1h400v-15.1
			C355.9,347.8,321.4,321.8,308.3,313z"/>
		<path d="M193.8,221.5c16,0,27.5-2,39.6-6.7c5.6-2.2,4.9-6.4,4.4-8.2l-1.4-4.6c-1.5-3.8-3.9-4.7-5.6-4.7c-1.4,0-2.8,0.5-3.7,0.9
			l-0.4,0.1c-8.2,3.1-18.2,4.9-28,4.9c-36,0-59.3-23.8-59.3-60.7c0-47.5,33.5-72.4,66.7-72.4c33.6,0,55.2,20.9,55.2,53.3
			c0,26.6-12.4,38.6-21.1,38.6H240c-1.7-0.1-2.8-0.6-3.6-1.6c-2-2.5-2.2-8.1-0.7-17.2l6.2-38.3v-0.1c0-0.3,0.6-7.6-4.7-9.5
			c-6.9-2.5-16.2-4-24.4-4c-37.3,0-57.5,29.5-57.5,57.3c0,19.9,11.2,32.7,28.4,32.7c12.3,0,22.6-5.5,30.1-16
			c2.4,10.2,10.1,16,21.6,16c27.7,0,47-24,47-58.4c0-40.9-31-70.6-73.7-70.6c-51.8,0-90.9,39.8-90.9,92.5
			C117.7,195.1,156,221.5,193.8,221.5z M211.2,135.1c-2,12.8-10.5,23.6-18.6,23.6c-8.9,0-10.2-8.2-10.2-13.1
			c0-17.7,11.8-32.1,26.4-32.1c2.2,0,4,0.2,5.5,0.6L211.2,135.1z"/>
	</g>
</g>
<g id="sacom_mr" class="st0">
	<path class="st1" d="M200,0C133,0,78.6,54.4,78.6,121.5C78.6,188.5,200,400,200,400s121.4-211.5,121.4-278.5
		C321.4,54.4,267,0,200,0z M200,189.8c-36.8,0-66.6-29.8-66.6-66.6s29.8-66.6,66.6-66.6s66.6,29.8,66.6,66.6
		C266.6,159.9,236.8,189.8,200,189.8z"/>
</g>
<g id="superpagina" class="st0">
	<g class="st1">
		<path d="M67.7,112.2l225.9-74.1l-0.2-14.5C293.2,6.8,282.3-3.3,269.3,1L34.8,77.9c-13,4.3-23.5,21.4-23.2,38.2l2.7,164.3
			c0.3,16.8,11.2,26.9,24.2,22.6l8.5-2.8l-2.4-149.8C44.3,133.6,54.7,116.5,67.7,112.2z"/>
		<path d="M107.3,153.4L294.6,92l32.2-10.6l12.9-4.2l-0.1-5.5c-0.2-12.4-6.2-21.2-14.7-23.1c-2.9-0.7-6.2-0.6-9.5,0.5L294,56
			L81,125.9c-13,4.3-23.5,21.4-23.2,38.2l2.1,131.8l0.5,32.4c0.1,3.5,0.6,6.6,1.5,9.4c3.4,10.9,12.4,16.6,22.7,13.2l2.1-0.7l-0.3-18
			l-0.7-44.9l-1.6-95.9C83.8,174.7,94.3,157.6,107.3,153.4z"/>
		<path d="M385.8,119.7c-0.2-14.9-8.9-24.5-19.9-23.5c-1.4,0.1-2.8,0.4-4.3,0.9l-21.4,7l-12.9,4.2L295,118.9L127.1,174
			c-13,4.3-23.5,21.4-23.2,38.2l1.1,69l0.7,44.9l0.3,18l0.5,32.4c0,1,0.1,2,0.2,2.9c1.4,15,11.8,23.7,24,19.7l234.5-76.9
			c13-4.3,23.5-21.4,23.2-38.2L385.8,119.7z"/>
	</g>
</g>
<g>
	<path d="M389.9,227.6c0-50.8-22.8-96-58.7-126.4c5.4,14.2,8.8,29.2,10,44.6c3.7,44-10,86.9-38.6,120.6
		c-28.6,33.8-68.5,54.3-112.5,58c-4.6,0.5-9.3,0.6-13.9,0.6l0,0c-40.1,0-78-14.7-107.4-40.1c18.1,48.5,58.5,85.8,108.4,101.7
		c49.4,15.6,74.2-6.5,134.3-14.4c30.9-4,59.1,8,78.3,20.8V228.5l0,0C389.9,228.2,389.9,227.9,389.9,227.6z"/>
	<path d="M189.3,311.6c84-7.1,146.3-80.7,139.2-164.7c-7.1-84-80.7-146.3-164.7-139.2c-0.3,0-0.6,0-0.9,0.2l0,0L12.1,20.3
		c13.3,16.5,26.6,41.5,25.2,70.2c-2.6,55.7-21,80.3-2.9,124.4C59.3,275.8,120.3,317.4,189.3,311.6z"/>
</g>
</svg>
