<?xml version="1.0" encoding="utf-8"?>
<!-- Generator: Adobe Illustrator 19.2.0, SVG Export Plug-In . SVG Version: 6.00 Build 0)  -->
<svg version="1.1" id="Capa_1" xmlns="http://www.w3.org/2000/svg" xmlns:xlink="http://www.w3.org/1999/xlink" x="0px" y="0px"
	 viewBox="0 0 56 56" style="enable-background:new 0 0 56 56;" xml:space="preserve">
<style type="text/css">
	.st0{fill:#F4F4F2;}
	.st1{fill:#E0DFDA;}
	.st2{fill:#FF601A;}
	.st3{fill:#FFFFFF;}
	.st4{fill:#B2B2B2;}
</style>
<g>
	<path class="st0" d="M37,0H8C7.2,0,6.5,0.7,6.5,1.9V55c0,0.3,0.7,1,1.5,1h40c0.8,0,1.5-0.7,1.5-1V13c0-0.7-0.1-0.9-0.3-1.1
		L37.6,0.3C37.4,0.1,37.2,0,37,0z"/>
	<polygon class="st1" points="37.5,0.2 37.5,12 49.3,12 	"/>
	<path class="st2" d="M48,56H8c-0.8,0-1.5-0.7-1.5-1.5V39h43v15.5C49.5,55.3,48.8,56,48,56z"/>
	<g>
		<path class="st3" d="M17.6,53H16V42.9h2.9c0.4,0,0.9,0.1,1.3,0.2s0.8,0.3,1.1,0.6c0.3,0.3,0.6,0.6,0.8,1s0.3,0.8,0.3,1.3
			s-0.1,1-0.3,1.4s-0.4,0.8-0.7,1s-0.7,0.5-1.1,0.7s-0.9,0.2-1.4,0.2h-1.2L17.6,53L17.6,53z M17.6,44.2v4h1.5c0.2,0,0.4,0,0.6-0.1
			s0.4-0.2,0.5-0.3s0.3-0.4,0.4-0.6s0.1-0.6,0.1-1c0-0.2,0-0.4-0.1-0.6c0-0.2-0.1-0.4-0.3-0.6c-0.1-0.2-0.3-0.4-0.6-0.5
			s-0.6-0.2-1-0.2L17.6,44.2L17.6,44.2z"/>
		<path class="st3" d="M25.9,53h-1.6V42.9h2.9c0.4,0,0.9,0.1,1.3,0.2s0.8,0.3,1.1,0.6c0.3,0.3,0.6,0.6,0.8,1s0.3,0.8,0.3,1.3
			s-0.1,1-0.3,1.4s-0.4,0.8-0.7,1S29,49,28.5,49.1s-0.9,0.2-1.4,0.2h-1.2V53L25.9,53z M25.9,44.2v4h1.5c0.2,0,0.4,0,0.6-0.1
			s0.4-0.2,0.5-0.3s0.3-0.4,0.4-0.6s0.1-0.6,0.1-1c0-0.2,0-0.4-0.1-0.6c0-0.2-0.1-0.4-0.3-0.6c-0.1-0.2-0.3-0.4-0.6-0.5
			s-0.6-0.2-1-0.2L25.9,44.2L25.9,44.2z"/>
		<path class="st3" d="M39.6,42.9V44h-3v9h-1.7v-9h-3v-1.1H39.6z"/>
	</g>
	<path class="st4" d="M39.5,30h-24V14h24V30z M17.5,28h20V16h-20V28z"/>
	<path class="st4" d="M20.5,35c-0.2,0-0.4,0-0.5-0.1c-0.5-0.3-0.6-0.9-0.3-1.4l3-5c0.3-0.5,0.9-0.6,1.4-0.3c0.5,0.3,0.6,0.9,0.3,1.4
		l-3,5C21.2,34.8,20.8,35,20.5,35z"/>
	<path class="st4" d="M34.5,35c-0.3,0-0.7-0.2-0.9-0.5l-3-5c-0.3-0.5-0.1-1.1,0.3-1.4c0.5-0.3,1.1-0.1,1.4,0.3l3,5
		c0.3,0.5,0.1,1.1-0.3,1.4C34.9,35,34.7,35,34.5,35z"/>
	<path class="st4" d="M27.5,16c-0.6,0-1-0.4-1-1v-3c0-0.6,0.4-1,1-1s1,0.4,1,1v3C28.5,15.6,28.1,16,27.5,16z"/>
	<rect x="17.5" y="16" class="st1" width="20" height="12"/>
</g>
</svg>
