<?xml version="1.0" encoding="utf-8"?>
<!-- Generator: Adobe Illustrator 16.0.0, SVG Export Plug-In . SVG Version: 6.00 Build 0)  -->
<!DOCTYPE svg PUBLIC "-//W3C//DTD SVG 1.1//EN" "http://www.w3.org/Graphics/SVG/1.1/DTD/svg11.dtd">
<svg version="1.1" xmlns="http://www.w3.org/2000/svg" xmlns:xlink="http://www.w3.org/1999/xlink" x="0px" y="0px" width="400px"
	 height="400px" viewBox="0 0 400 400" enable-background="new 0 0 400 400" xml:space="preserve">
<g id="Layer_1" display="none">
	<g display="inline">
		<path fill="#231F20" d="M117.931,170.252c0-9.134-7.404-16.525-16.525-16.525c-9.121,0-16.524,7.391-16.524,16.525
			c0,9.127,7.404,16.525,16.524,16.525C110.527,186.777,117.931,179.379,117.931,170.252z"/>
		<path fill="#231F20" d="M298.601,186.777c9.128,0,16.525-7.397,16.525-16.525c0-9.134-7.397-16.525-16.525-16.525
			c-9.127,0-16.524,7.391-16.524,16.525C282.076,179.379,289.474,186.777,298.601,186.777z"/>
		<path fill="#231F20" d="M216.525,81.014c0-9.134-7.397-16.525-16.525-16.525c-9.127,0-16.525,7.391-16.525,16.525
			c0,9.127,7.397,16.525,16.525,16.525C209.128,97.539,216.525,90.142,216.525,81.014z"/>
		<path fill="#231F20" d="M155.586,157.2c-5.99,6.884-5.264,17.322,1.624,23.312l25.336,22.039
			c3.021,2.629,6.878,4.055,10.844,4.055c0.587,0,1.181-0.031,1.772-0.09c4.573-0.496,8.736-2.875,11.48-6.564l38.562-51.782
			c5.454-7.32,3.938-17.671-3.383-23.123c-7.319-5.448-17.674-3.947-23.122,3.382l-27.915,37.485l-11.887-10.338
			C172.021,149.589,161.573,150.315,155.586,157.2z"/>
		<path fill="#231F20" d="M200,0C99.827,0,18.329,81.501,18.329,181.677c0,47.762,18.419,92.875,51.866,127.042
			c8.934,9.135,23.587,9.277,32.714,0.35c9.131-8.939,9.286-23.588,0.349-32.715c-24.929-25.465-38.66-59.09-38.66-94.676
			C64.599,107.012,125.341,46.27,200,46.27c74.659,0,135.401,60.742,135.401,135.407c0,35.586-13.729,69.211-38.66,94.676
			c-8.939,9.127-8.785,23.775,0.349,32.715c4.5,4.408,10.342,6.604,16.184,6.604c6.003,0,12-2.324,16.531-6.953
			c33.444-34.166,51.866-79.279,51.866-127.042C381.671,81.501,300.177,0,200,0z"/>
		<polygon fill="#231F20" points="111.462,361.619 103.755,361.619 103.755,340.201 87.604,340.201 87.604,400 103.755,400 
			103.755,375.949 111.462,375.949 111.462,400 127.613,400 127.613,340.201 111.462,340.201 		"/>
		<path fill="#231F20" d="M157.358,340.201c-5.629,0-10.496,2.006-14.601,6.021c-5.525,5.41-8.289,13.227-8.289,23.445
			c0,10.676,2.647,18.674,7.94,24.012c4.209,4.217,9.257,6.32,15.144,6.32c6.636,0,12.02-2.744,16.15-8.23
			c4.157-5.506,6.236-12.664,6.236-21.463c0-9.197-2.04-16.518-6.12-21.953S164.252,340.201,157.358,340.201z M161.541,381.643
			c-1.033,2.686-2.505,4.027-4.416,4.027c-1.859,0-3.312-1.361-4.357-4.08c-1.045-2.723-1.568-6.551-1.568-11.488
			c0-5.016,0.555-8.812,1.665-11.395c1.136-2.781,2.66-4.176,4.57-4.176c3.821,0,5.732,5.305,5.732,15.91
			C163.167,375.225,162.625,378.963,161.541,381.643z"/>
		<path fill="#231F20" d="M226.607,360.146c0-6.764-2.297-11.98-6.894-15.646c-3.615-2.867-9.063-4.299-16.345-4.299h-16.538V400
			h16.074v-20.914l-0.116-3.951c0.283,0.826,0.522,1.537,0.716,2.131c0.194,0.594,0.329,1.072,0.407,1.434L211.891,400h17.467
			l-12.006-24.865C223.522,372.373,226.607,367.377,226.607,360.146z M208.715,364.91c-1.239,1.42-2.789,2.131-4.648,2.131h-1.084
			v-14.254h0.581c4.673,0,7.011,2.234,7.011,6.701C210.574,361.684,209.954,363.49,208.715,364.91z"/>
		<path fill="#231F20" d="M245.354,340.201L230.984,400h16.692l1.316-7.59h10.884l1.201,7.59h16.692l-12.665-59.799H245.354z
			 M251.162,379.822l1.627-9.373l1.123-7.242c0.027-0.129,0.078-0.504,0.155-1.123c0.077-0.621,0.207-1.73,0.388-3.332
			c0.104-0.799,0.2-1.535,0.29-2.207c0.091-0.672,0.162-1.279,0.213-1.82l0.504,5.654c0.129,1.162,0.232,2.123,0.31,2.885
			s0.143,1.363,0.193,1.803c0.491,3.924,0.763,6.17,0.813,6.738c0.078,0.672,0.13,1.02,0.155,1.045l1.046,6.973H251.162z"/>
		<path fill="#231F20" d="M302.829,364.426l-2.556-1.832c-2.195-1.518-3.292-3.047-3.292-4.59c0-0.949,0.412-1.756,1.239-2.428
			c0.8-0.697,1.82-1.045,3.06-1.045c1.627,0,3.279,0.586,4.957,1.762s3.176,2.783,4.492,4.822V343.17
			c-3.898-1.982-7.771-2.969-11.618-2.969c-4.312,0-7.992,1.246-11.038,3.736c-1.11,0.871-2.092,1.873-2.944,3.01
			c-0.852,1.129-1.6,2.381-2.246,3.748c-1.29,2.945-1.937,5.758-1.937,8.451c0,1.568,0.182,3.059,0.542,4.479
			c0.362,1.422,0.93,2.797,1.704,4.133c0.774,1.328,1.782,2.627,3.021,3.885c1.239,1.26,2.736,2.518,4.492,3.789l2.634,1.982
			c1.911,1.465,2.866,2.977,2.866,4.518c0,1.072-0.438,1.963-1.316,2.674c-0.878,0.709-2.014,1.064-3.408,1.064
			c-3.693,0-7.127-2.168-10.303-6.508v18.398c4.338,1.627,8.404,2.439,12.2,2.439c5.5,0,10.044-1.84,13.633-5.525
			c3.59-3.68,5.384-8.359,5.384-14.033c0-3.338-0.748-6.248-2.247-8.74C308.677,369.217,306.237,366.789,302.829,364.426z"/>
		<path fill="#231F20" d="M168.267,290.586c-1.672,2.545-3.731,5.449-6.184,8.684L140.51,327.82h54.042V308.9
			c-3.357,0-6.643,0.18-9.851,0.529c-3.202,0.361-6.384,0.949-9.541,1.775c3.66-3.473,6.778-6.799,9.34-9.947
			c2.576-3.164,4.661-6.178,6.268-9.045c3.195-5.744,4.79-11.65,4.79-17.725c0-7.566-2.35-13.697-7.062-18.396
			c-4.673-4.783-10.709-7.191-18.087-7.191c-7.656,0-13.943,2.426-18.849,7.268c-4.88,4.816-7.32,11.143-7.32,19.01l0.104,2.861
			h20.546c-0.032-0.646-0.058-1.215-0.071-1.691c-0.025-0.473-0.032-0.885-0.032-1.227c0-6.404,1.729-9.605,5.189-9.605
			c1.556,0,2.782,0.619,3.686,1.877c0.897,1.248,1.343,2.932,1.343,5.068c0,3.887-0.93,7.67-2.802,11.348
			C171.25,285.777,169.933,288.031,168.267,290.586z"/>
		<path fill="#231F20" d="M226.634,248.9l-23.819,46.256v16.662h28.673v16.002h21.263v-16.002h6.74v-16.609h-6.74V248.9H226.634z
			 M232.326,277.174c-0.083,1.49-0.122,2.588-0.122,3.26v14.775H220.14c1.568-2.389,3.137-5.002,4.706-7.85
			c1.562-2.84,3.131-5.912,4.699-9.225l3.169-6.744C232.54,273.746,232.417,275.662,232.326,277.174z"/>
	</g>
</g>
<g id="Layer_3">
	<path d="M388.218,191.568L208.199,11.616C201.032,4.399,191.001,0,180.019,0H39.967C18,0,0,18.001,0,39.967V180
		c0,10.982,4.399,21.017,11.782,28.418l180.019,179.949c7.167,7.232,17.197,11.632,28.18,11.632
		c10.987,0,21.019-4.399,28.185-11.782l140.033-140.034c7.402-7.182,11.802-17.216,11.802-28.198
		C400,208.998,395.385,198.801,388.218,191.568z M69.984,100.002c-16.566,0-30.017-13.386-30.017-30.018
		c0-16.565,13.451-30.017,30.017-30.017C86.616,39.967,100,53.419,100,69.984C100,86.616,86.616,100.002,69.984,100.002z
		 M269.842,279.5l-14.805-14.723c-11.145,8.061-21.759,12.106-31.847,12.133c-10.087,0.03-21.606-4.004-34.556-12.098l12.728-19.574
		c9.661,5.214,17.674,7.813,24.039,7.793c6.365-0.31,12.309-3.239,17.827-8.789c5.371-5.401,8.121-11.651,8.248-18.753
		c0.127-7.002-2.534-13.215-7.984-18.637c-4.862-4.835-10.256-7.217-16.181-7.154c-2.937,0.106-6.777,0.754-11.527,1.941
		c-4.744,1.189-10.471,3.043-17.171,5.556c-13.746,5.279-23.901,7.634-30.464,7.062c-10.088-0.559-18.864-4.551-26.329-11.974
		c-3.534-3.516-6.264-7.351-8.184-11.51c-1.922-4.157-3.06-8.537-3.416-13.141c-0.354-4.6,0.122-9.375,1.43-14.325
		c1.309-4.95,3.426-9.927,6.35-14.929l-14.436-14.358l12.819-12.89l14.437,14.357c6.695-4.866,13.323-7.699,19.882-8.502
		c6.561-0.801,14.495,0.109,23.807,2.727l-6.255,22.346c-12.155-3.49-21.7-1.751-28.633,5.221
		c-4.299,4.321-6.586,9.177-6.866,14.563c-0.278,5.388,1.498,9.985,5.328,13.793c3.488,3.469,7.531,5.196,12.134,5.183
		c4.505-0.012,11.722-1.917,21.653-5.716c8.609-3.254,16.034-5.637,22.274-7.149c6.24-1.509,11.439-2.148,15.602-1.916
		c11.511,0.41,21.513,4.838,30.006,13.286c8.352,8.304,13.226,18.133,14.626,29.49c1.4,11.261-0.919,22.136-6.963,32.632
		l15.247,15.164L269.842,279.5z"/>
</g>
<g id="Layer_2" display="none">
	<path display="inline" d="M394.056,324.274L256.493,186.713l100.176-43.22c7.774-3.355,12.643-11.183,12.227-19.638
		c-0.423-8.455-6.044-15.76-14.11-18.33L26.449,0.956C19.222-1.342,11.31,0.574,5.946,5.942C0.582,11.306-1.347,19.22,0.958,26.445
		l104.569,328.338c2.57,8.067,9.882,13.688,18.337,14.111c8.455,0.422,16.275-4.461,19.63-12.227l43.22-100.178l137.57,137.563
		c3.805,3.805,8.963,5.945,14.347,5.945c5.376,0,10.541-2.141,14.346-5.945l41.079-41.078
		C401.981,345.047,401.981,332.202,394.056,324.274L394.056,324.274z M394.056,324.274"/>
</g>
</svg>
