<?xml version="1.0" encoding="utf-8"?>
<!-- Generator: Adobe Illustrator 19.2.0, SVG Export Plug-In . SVG Version: 6.00 Build 0)  -->
<svg version="1.1" id="Capa_1" xmlns="http://www.w3.org/2000/svg" xmlns:xlink="http://www.w3.org/1999/xlink" x="0px" y="0px"
	 viewBox="0 0 56 56" style="enable-background:new 0 0 56 56;" xml:space="preserve">
<style type="text/css">
	.st0{fill:#F4F4F2;}
	.st1{fill:#E0DFDA;}
	.st2{fill:#1C73F2;}
	.st3{fill:#FFFFFF;}
	.st4{fill:#B2B2B2;}
</style>
<g>
	<path class="st0" d="M37,0H8C7.2,0,6.5,0.7,6.5,1.9V55c0,0.3,0.7,1,1.5,1H48c0.8,0,1.5-0.7,1.5-1V13c0-0.7-0.1-0.9-0.3-1.1
		L37.6,0.3C37.4,0.1,37.2,0,37,0z"/>
	<polygon class="st1" points="37.5,0.2 37.5,12 49.3,12 	"/>
	<path class="st2" d="M48,56H8c-0.8,0-1.5-0.7-1.5-1.5V39h43v15.5C49.5,55.3,48.8,56,48,56z"/>
	<g>
		<path class="st3" d="M30,44v3.2h4.2v1.1H30v3.3h4.6v1.2h-6.3V42.8h6.3V44H30z"/>
		<path class="st3" d="M27.1,42.8l-2.7,10.1h-2.1l-1.7-7.6l-1.8,7.6h-2.1l-2.6-10.1H16l1.8,8.7l1.9-8.7h1.9l1.8,8.7l1.9-8.7H27.1z"
			/>
		<path class="st3" d="M40.5,47.6c0.2,0,0.4,0.1,0.7,0.2s0.5,0.3,0.7,0.5c0.2,0.2,0.4,0.4,0.5,0.7s0.2,0.6,0.2,1
			c0,0.5-0.1,0.8-0.2,1.2c-0.1,0.3-0.3,0.6-0.5,0.8c-0.2,0.2-0.4,0.4-0.7,0.5c-0.2,0.1-0.5,0.2-0.7,0.3c-0.2,0.1-0.4,0.1-0.6,0.1
			c-0.2,0-0.3,0-0.3,0h-3.8V42.8h2.9c0.4,0,0.8,0,1.2,0.2c0.4,0.1,0.8,0.3,1.1,0.5c0.3,0.2,0.6,0.5,0.7,0.9c0.2,0.4,0.3,0.8,0.3,1.3
			c0,0.3,0,0.5-0.1,0.8s-0.2,0.4-0.3,0.6s-0.3,0.3-0.5,0.4C40.8,47.4,40.7,47.5,40.5,47.6z M38.6,47.1c0.2,0,0.4,0,0.6,0
			c0.2,0,0.4-0.1,0.6-0.2c0.2-0.1,0.3-0.2,0.4-0.5c0.1-0.2,0.2-0.5,0.2-0.9c0-0.2,0-0.3-0.1-0.5c0-0.2-0.1-0.3-0.3-0.5
			s-0.3-0.3-0.6-0.4c-0.3-0.1-0.6-0.1-1-0.1h-1.1v3.1h0.1L38.6,47.1L38.6,47.1z M39.4,51.7c0.5,0,0.9-0.2,1.1-0.5
			c0.3-0.3,0.4-0.7,0.4-1.2c0-0.5-0.1-0.9-0.4-1.2c-0.3-0.3-0.7-0.5-1.2-0.5h-1.9v3.5H39.4z"/>
	</g>
	<g>
		<path class="st4" d="M37.7,20.4c-0.3-5.3-4.6-9.5-9.9-9.9v0h-0.7h-0.7v0c-5.3,0.3-9.5,4.6-9.9,9.9h0v0.7v0.7h0
			c0.3,5.3,4.6,9.5,9.9,9.9v0h0.7h0.7v0c5.3-0.3,9.5-4.6,9.9-9.9h0v-0.7L37.7,20.4L37.7,20.4z M23.2,12.8c-0.7,0.9-1.2,2-1.7,3.3
			h-2.1C20.3,14.7,21.6,13.5,23.2,12.8z M18.7,17.5h2.5c-0.2,0.9-0.3,1.8-0.3,2.8H18C18.1,19.4,18.3,18.4,18.7,17.5z M18,21.8h2.8
			c0,1,0.2,1.9,0.3,2.8h-2.5C18.3,23.7,18.1,22.8,18,21.8z M19.4,26h2.1c0.4,1.3,1,2.4,1.7,3.3C21.6,28.6,20.3,27.5,19.4,26z
			 M26.4,30.2C25,29.8,23.7,28.2,23,26h3.5V30.2z M26.4,24.6h-3.9c-0.2-0.9-0.3-1.8-0.4-2.8h4.2V24.6z M26.4,20.4h-4.2
			c0-1,0.2-1.9,0.4-2.8h3.9V20.4z M26.4,16.1H23c0.8-2.2,2-3.8,3.5-4.1V16.1z M34.9,16.1h-2.1c-0.4-1.3-1-2.4-1.7-3.3
			C32.7,13.5,34,14.7,34.9,16.1z M27.9,12c1.5,0.4,2.7,1.9,3.5,4.1h-3.5V12z M27.9,17.5h3.9c0.2,0.9,0.3,1.8,0.4,2.8h-4.2V17.5z
			 M27.9,21.8h4.2c0,1-0.2,1.9-0.4,2.8h-3.9V21.8z M27.9,30.2V26h3.5C30.6,28.2,29.3,29.8,27.9,30.2z M31.1,29.4
			c0.7-0.9,1.3-2,1.7-3.3h2.1C34,27.5,32.7,28.6,31.1,29.4z M35.6,24.6h-2.5c0.2-0.9,0.3-1.8,0.3-2.8h2.8
			C36.2,22.8,36,23.7,35.6,24.6z M33.5,20.4c0-1-0.2-1.9-0.3-2.8h2.5c0.4,0.9,0.6,1.8,0.7,2.8H33.5z"/>
	</g>
</g>
</svg>
