<?xml version="1.0" encoding="utf-8"?>
<!-- Generator: Adobe Illustrator 19.2.0, SVG Export Plug-In . SVG Version: 6.00 Build 0)  -->
<svg version="1.1" id="Layer_1" xmlns="http://www.w3.org/2000/svg" xmlns:xlink="http://www.w3.org/1999/xlink" x="0px" y="0px"
	 viewBox="0 0 512 512" style="enable-background:new 0 0 512 512;" xml:space="preserve">
<style type="text/css">
	.st0{fill:#8CC63F;}
</style>
<g>
	<g>
		<path class="st0" d="M264.4,72C168,72,89.9,150.1,89.9,246.4S168,420.8,264.4,420.8s174.4-78.1,174.4-174.4S360.7,72,264.4,72z
			 M264.4,387.2c-77.6,0-140.8-63.1-140.8-140.8s63.1-140.8,140.8-140.8s140.8,63.1,140.8,140.8S342,387.2,264.4,387.2z"/>
	</g>
</g>
<g>
	<g>
		<path class="st0" d="M503.7,259.9V99.4c0-1.5-1-2.9-2.5-3.4c-1.5-0.5-3.1,0-4,1.2c-20,26.4-30.9,58.6-30.9,91.7v58.7
			c0,6.7,5.5,12.2,12.2,12.2h5.1c-5,51.7-8.3,124.1-8.3,132.6c0,13.3,8.2,24.2,18.3,24.2c10.1,0,18.3-10.8,18.3-24.2
			C512,384,508.7,311.6,503.7,259.9z"/>
	</g>
</g>
<g>
	<g>
		<path class="st0" d="M58,228.7c10.6-6.4,17.7-18.1,17.7-31.5l-5.3-86.1c-0.2-3.3-2.9-5.8-6.2-5.8c-3.6,0-6.4,3-6.2,6.5l3.4,69.1
			c0,3.9-3.1,7-7,7c-3.9,0-7-3.1-7-7l-1.7-69c-0.1-3.6-3.1-6.6-6.7-6.6c-3.6,0-6.6,2.9-6.7,6.6l-1.7,69c0,3.9-3.1,7-7,7
			c-3.9,0-7-3.1-7-7l3.4-69.1c0.2-3.6-2.7-6.5-6.2-6.5c-3.3,0-6,2.6-6.2,5.8l-5.3,86.1c0,13.3,7.1,25,17.7,31.5
			c6.9,4.2,10.8,12,9.9,20.1c-6,54.1-10.1,142.4-10.1,152c0,14,8.6,25.3,19.2,25.3s19.2-11.3,19.2-25.3c0-9.6-4.1-97.9-10.1-152
			C47.2,240.7,51.1,232.9,58,228.7z"/>
	</g>
</g>
</svg>
