<?xml version="1.0" encoding="utf-8"?>
<!-- Generator: Adobe Illustrator 19.2.0, SVG Export Plug-In . SVG Version: 6.00 Build 0)  -->
<svg version="1.1" id="Layer_1" xmlns="http://www.w3.org/2000/svg" xmlns:xlink="http://www.w3.org/1999/xlink" x="0px" y="0px"
	 viewBox="0 0 561.1 288" style="enable-background:new 0 0 561.1 288;" xml:space="preserve">
<style type="text/css">
	.st0{fill:#FFD100;}
</style>
<g>
	<g>
		<path d="M127.5,237.2h-9.6v-41.2c0-6-2.2-11-6.5-15.3c-4.3-4.3-9.2-6.4-15.1-6.4s-11,2.1-15.3,6.4c-4.3,4.3-6.4,9.3-6.4,15.3v41.2
			h-9.6v-40.1c0-9.1,2.9-16.7,8.9-22.8s13.3-9.1,22.4-9.1c8.9,0,16.3,3,22.3,9.1s8.9,13.7,8.9,22.8L127.5,237.2L127.5,237.2z"/>
		<path d="M208.5,214.1c-2.6,7.6-7,13.7-13.3,18.1c-6.3,4.4-13.2,6.7-20.9,6.8c-9.7,0.1-18.2-3.4-25.6-10.5
			c-7.5-7.4-11.2-15.9-11.3-25.8c-0.2-10.5,3.5-19.6,11.1-27.2c7.8-7.7,16.8-11.2,27.3-10.6c9.5,0.6,17.5,4.4,24.5,11.7
			c6.7,7,10,14.9,10,23.7v5h-63.2c0.7,7,3.7,13,9,17.5c5.4,4.6,11.6,6.9,18.7,6.8c11.1-0.1,19-5.4,23.8-15.4H208.5z M201,196.6
			c-1.4-6.5-4.4-11.9-9.2-16c-4.8-4.1-10.6-6.2-17.4-6.3c-6.8-0.1-12.7,2-17.9,6.1c-5,4.1-8.2,9.6-9.6,16.2H201z"/>
		<path d="M291.1,234c0,8.9-3.7,16.3-11,22.2c-7.2,5.8-15.5,8.6-25,8.3c-8.4-0.4-15.8-2.8-21.7-7.7c-5.8-4.6-9.7-10.5-11.7-17.6h9.1
			c1.4,4.8,4.6,9,9.5,12.5c4.8,3.6,10.2,5.4,16,5.4c6.9-0.1,12.8-2.5,18-7.2c5-4.7,7.7-10.4,7.7-16.9v-6.7
			c-6.9,7.9-15.5,12.1-25.9,12.5c-10.2,0.4-18.9-3.3-26.3-10.5c-7.2-7.5-11-16.3-11-26.6c0-9.9,3.4-18.4,10.2-25.6
			c6.8-7.1,15.2-10.9,25-11.2c10.2-0.2,18.9,3.4,26.4,10.7c7.6,7.2,11.1,16.1,11,26.3V234H291.1z M273.7,221.3
			c5-5.4,7.8-11.7,7.9-19c0.2-7.8-2.3-14.5-7.9-20.3c-5.5-5.8-12-8.5-19.7-8.2c-7.2,0.4-13.3,3.4-18.4,8.9c-5,5.6-7.6,12-7.5,19.4
			c0.1,7.6,2.8,13.9,8.2,19.1c5.4,5.3,11.7,7.9,19,7.9C262.5,229.1,268.6,226.5,273.7,221.3z"/>
		<path d="M362.3,228.4c-7.4,7.4-16.1,10.9-26.3,10.5c-9.8-0.2-18.2-4-25-11.1s-10.2-15.8-10.2-25.6c0-10.3,3.7-19.1,11-26.5
			c7.2-7.5,16.1-11,26.3-10.6c9.8,0.4,18.2,4.1,25,11.3c6.8,7.1,10.3,15.8,10.3,25.6C373.4,212.2,369.8,221,362.3,228.4z
			 M336.3,229.7c7.8,0.4,14.4-2.2,19.7-8.1c5.6-5.8,8.2-12.5,8.1-20.3c-0.2-7.5-2.9-13.8-8.1-19c-5-5.4-11.1-7.9-18.3-7.9
			c-7.6-0.1-13.9,2.6-19.1,7.9c-5.4,5.4-7.9,11.7-8.1,19.1s2.2,14,7.4,19.5C323,226.4,328.9,229.4,336.3,229.7z"/>
		<path d="M455.1,218.6c-7.5,13.8-18.9,20.4-34.3,20.3c-10.3-0.1-19-3.7-26.5-10.7c-7.5-7-11.1-15.8-11.2-25.8
			c-0.1-10.3,3.5-18.9,10.9-26.3c7.6-7.4,16.5-11.1,26.8-11.2c7.5-0.1,14.4,1.9,20.8,5.8c6.1,3.9,10.5,8.5,13.1,14.4l1.4,3h-10.6
			c-5.4-9-13.3-13.8-24.3-14c-7.2-0.1-13.8,2.5-19.5,7.9c-6.1,5.6-9,12.3-9,20c0,7.7,2.8,14.2,8.4,19.7c5.6,5.5,12.3,8.2,20,8.1
			c11-0.1,19.1-4.6,24.6-13.2h10.6L455.1,218.6z"/>
		<path d="M470.2,158.5H461V142h9.2V158.5z M470.2,237.2H461v-70.5h9.2V237.2z"/>
		<path d="M541.9,228.4c-7.2,7.4-16.1,10.9-26.3,10.5c-9.8-0.2-18.2-4-25-11.1s-10.2-15.8-10.2-25.6c0-10.3,3.7-19.1,11-26.5
			c7.2-7.5,16.1-11,26.3-10.6c9.8,0.4,18.2,4.1,25,11.3c6.8,7.1,10.3,15.8,10.3,25.6C553,212.2,549.3,221,541.9,228.4z M515.9,229.7
			c7.8,0.4,14.4-2.2,19.7-8.1c5.6-5.8,8.2-12.5,8.1-20.3c-0.2-7.5-2.9-13.8-8.1-19c-5-5.4-11.1-7.9-18.3-7.9
			c-7.6-0.1-13.9,2.6-19.1,7.9c-5.4,5.4-7.9,11.7-8.1,19.1s2.2,14,7.4,19.5C502.6,226.4,508.5,229.4,515.9,229.7z"/>
	</g>
	<g>
		<path d="M131.8,160.5h-11.9v-53c0-6.7-2-12.4-5.7-17c-3.7-4.7-8.9-7.1-15.2-7.1c-6.3,0-11.8,2.1-16.5,6.2
			c-4.6,4.1-6.8,9.2-6.8,15.4v55.5H63.7v-55.5c0-6.2-2.2-11.3-7-15.4c-4.6-4.1-10-6.2-16.3-6.2c-6.2,0-11.2,2.5-14.9,7.1
			c-3.7,4.7-5.6,10.3-5.6,17v53H7.9v-51.6c0-10.7,3-19.5,9.2-26c5.7-6.2,13.3-9.7,22.6-10.4c12.6-1.1,22.5,4.4,30,16
			c7.5-11.7,17.4-17,30-16c9.3,0.7,16.9,4.2,22.9,10.4c6.2,6.5,9.3,15.3,9.3,26v51.6H131.8z"/>
	</g>
	<g>
		<path class="st0" d="M172,115.5l-33.1,42.1c-0.6,0.7-0.2,1.2,0.6,1.1l18.8-2.3c0.8-0.1,2-0.7,2.5-1.4l23.5-29.8L172,115.5z"/>
		<path class="st0" d="M231.1,91.5l9.5-12c9-0.8,17.4-5.1,23.2-12c1.1-1.3,1.6-2.9,1.4-4.7c-0.1-1.6-1.1-3.3-2.3-4.3l-44.7-35.1
			c-1.3-1.1-3-1.5-4.7-1.3c-1.6,0.2-3.2,1.2-4.2,2.5c-5.4,7.4-7.6,16.5-6.2,25.4l-9.6,12c-16.2-2.1-32.7,4.6-42.8,17.5
			c-0.1,0.1-0.2,0.2-0.4,0.5l-0.1,0.1c-2.1,2.7-1.5,6.5,1.2,8.6l63.7,50.1c2.7,2.1,6.7,1.6,8.8-1.1c0.1-0.1,0.2-0.2,0.4-0.4
			C234.4,124.3,237,106.7,231.1,91.5z M164.5,83c8.2-7.4,19.5-10.5,30.5-8.2c2.3,0.5,4.8-0.4,6.2-2.2l13.5-17.3
			c1.2-1.5,1.6-3.5,1.2-5.3c-1.1-4.2-0.8-8.5,0.6-12.4l33,25.9c-3.5,2.2-7.7,3.5-11.9,3.5c-1.9,0-3.7,0.9-4.9,2.3L219,86.7
			c-1.5,1.9-1.8,4.4-0.7,6.5c4.9,10,4.6,21.8-0.7,31.4L164.5,83z"/>
	</g>
	<path d="M393.7,250.8V263c0,0.9,0,2,0.1,2.7h-1.6L392,264h-0.1c-0.6,1.2-1.8,2-3.4,2c-2.5,0-4.3-2.1-4.3-5.1c0-3.4,2.1-5.5,4.6-5.5
		c1.5,0,2.6,0.7,3,1.5l0,0v-6.1L393.7,250.8L393.7,250.8z M391.8,259.6c0-0.2,0-0.6-0.1-0.8c-0.2-1.2-1.3-2.1-2.7-2.1
		c-1.9,0-3,1.6-3,3.9c0,2.1,1.1,3.7,3,3.7c1.3,0,2.3-0.8,2.7-2.2c0.1-0.2,0.1-0.5,0.1-0.8V259.6z"/>
	<path d="M397.8,260.9c0,2.5,1.6,3.5,3.5,3.5c1.3,0,2.1-0.2,2.8-0.6l0.4,1.3c-0.7,0.4-1.8,0.7-3.4,0.7c-3.2,0-5-2.1-5-5.1
		c0-3,1.8-5.5,4.8-5.5c3.4,0,4.2,2.9,4.2,4.8c0,0.4,0,0.7-0.1,0.8h-7.1V260.9z M403.3,259.6c0-1.2-0.5-3-2.6-3c-1.9,0-2.7,1.8-2.8,3
		H403.3z"/>
	<g>
		<path d="M551.2,247h-4.1l-2.2,18.9h2.9l0.5-4.7h1.5l0.4,4.7h3L551.2,247L551.2,247z M549.1,252.1l-0.6,6.2h1.1L549.1,252.1
			L549.1,252.1z"/>
		<path d="M510,247h-4.1l-2.2,18.9h2.9l0.5-4.7h1.5l0.4,4.7h2.9L510,247L510,247z M507.9,252.1l-0.6,6.2h1.1L507.9,252.1
			L507.9,252.1z"/>
		<path d="M486.3,247h-4.1L480,266h2.9l0.5-4.7h1.5l0.4,4.7h3L486.3,247L486.3,247z M484.2,252.1l-0.6,6.2h1.1L484.2,252.1
			L484.2,252.1z"/>
		<polygon points="496,256.6 494.7,247 490,247 490,266 492.8,266 492.8,254.9 494.4,266 497.3,266 499.1,254.7 499.1,266 502,266 
			502,247 497.3,247 		"/>
		<polygon points="522.7,247 526,247 526,266 522.7,266 		"/>
		<polygon points="543.2,266 543.2,262.8 539.7,262.8 539.7,247 536.4,247 536.4,266 		"/>
		<polygon points="534.5,266 534.5,262.8 531.1,262.8 531.1,247 527.8,247 527.8,266 		"/>
		<path d="M513.6,254.9V266h3v-8.4c0-0.9,1.3,0.4,1.3,1.2v5.6c0,1.1,0.5,1.6,0.5,1.6h3c0,0-0.4-0.6-0.4-1.6v-5.6c0-0.9,0-3-1.9-3
			c0,0,1.9-0.4,1.9-4.3c0-3.5-1.2-4.3-4.2-4.3h-3.2v7.8H513.6z M516.7,249.8v4.4c0,0,1.3,0.2,1.3-2.2
			C518,249.5,516.7,249.8,516.7,249.8L516.7,249.8z"/>
		<g>
			<path d="M457.2,246.9c-3.2,0-5.7,2.6-5.7,5.7c0,3.2,5.7,13.2,5.7,13.2s5.7-10,5.7-13.2C463,249.6,460.4,246.9,457.2,246.9z"/>
			<circle class="st0" cx="457.2" cy="252.9" r="3.2"/>
		</g>
		<polygon points="471.2,256.8 469.5,247 464.7,247 464.7,266 467.4,266 467.4,253.9 469.9,266 473.8,266 473.8,247 471.2,247 		"/>
		<path d="M437.6,256.5c0,2,0,3.9,0,5.7c0,5.1,7.4,4.4,7.4,0.6c0-3.5,0-4.2,0-4.2H442c0,0,0,2.1,0,3.9c0,1.5-1.4,1.5-1.4-0.1
			c0-0.8,0-3.4,0-5.8c0-2.6,0-5.1,0-6c0-1.6,1.4-1.6,1.4-0.1c0,1.9,0,3.9,0,3.9h2.9c0,0,0-0.8,0-4.2c0-4-7.4-4.6-7.4,0.6
			C437.6,252.5,437.6,254.6,437.6,256.5L437.6,256.5z"/>
		<path d="M428.3,256.5c0,0,0,3.9,0,5.7c0,5.1,7.4,4.4,7.4,0.6c0-3.5,0-4.2,0-4.2h-2.9c0,0,0,2.1,0,3.9c0,1.5-1.4,1.5-1.4-0.1
			c0-0.8,0-3.4,0-5.8c0-2.6,0-5.1,0-6c0-1.6,1.4-1.6,1.4-0.1c0,1.9,0,3.9,0,3.9h2.9c0,0,0-0.8,0-4.2c0-4-7.4-4.6-7.4,0.6
			C428.3,252.5,428.3,254.6,428.3,256.5L428.3,256.5z"/>
		<polygon points="426.6,247 420.9,247 420.9,266 426.6,266 426.6,262.8 423.9,262.8 423.9,258.1 426.6,258.1 426.6,254.7 
			423.9,254.7 423.9,250.8 426.6,250.8 		"/>
		<path d="M419.1,254.2c0,0,0-2.5,0-4.1c0-4.2-7.4-4.2-7.4,0c0,0.7,0,1.6,0,2.6c0,1.5,0.8,2.6,0.9,2.7c0.2,0.4,2.3,2.9,2.7,3.5
			c0.7,1.1,0.7,1.4,0.7,3.4c0,1.8-1.5,1.8-1.5,0c0-0.5,0-3.6,0-3.6h-2.8c0,0,0,2.9,0,4.2c0,4.3,7.5,4.2,7.5,0c0-0.8,0.4-3.6-0.8-5
			c-1.1-1.2-2.6-3.2-3.2-4c-0.7-0.9-0.6-1.6-0.6-3.5c0-1.1,1.5-1.2,1.5,0c0,0.9,0,3.9,0,3.9H419.1L419.1,254.2z"/>
		<polygon points="446.7,246.9 449.7,246.9 449.7,266 446.7,266 		"/>
	</g>
</g>
</svg>
