<?xml version="1.0" encoding="utf-8"?>
<!-- Generator: Adobe Illustrator 19.2.0, SVG Export Plug-In . SVG Version: 6.00 Build 0)  -->
<svg version="1.1" id="Layer_1" xmlns="http://www.w3.org/2000/svg" xmlns:xlink="http://www.w3.org/1999/xlink" x="0px" y="0px"
	 viewBox="0 0 576.7 74.1" style="enable-background:new 0 0 576.7 74.1;" xml:space="preserve">
<style type="text/css">
	.st0{fill:none;}
	.st1{fill:#FFDD00;}
</style>
<polygon class="st0" points="374.2,20.2 374.2,20.2 374.2,20.2 "/>
<polygon class="st1" points="374.2,20.2 374.2,20.2 374.2,20.2 "/>
<polygon class="st1" points="374.2,20.2 374.2,20.2 374.2,20.2 "/>
<path class="st1" d="M290.4,0.3h-15.8l-8.6,73.7h11.3l1.6-18h5.7l1.5,18h11.6L290.4,0.3z M280.1,44.2l2.1-24.1h0l2.1,24.1H280.1z"/>
<polygon class="st1" points="328,37.8 323.1,0.4 304.5,0.4 304.5,74.1 315.4,74.1 315.4,30.8 321.4,74.1 333.1,74.1 339.6,30.6 
	339.6,74.1 351,74.1 351,0.4 332.9,0.4 "/>
<polygon class="st1" points="432.1,0.4 444.8,0.4 444.8,74.1 432.1,74.1 "/>
<polygon class="st1" points="511.3,74.1 511.3,62 497.8,62 497.8,0.3 484.9,0.3 484.9,74.1 "/>
<polygon class="st1" points="478.1,74.1 478.1,62 464.5,62 464.5,0.3 451.7,0.3 451.7,74.1 "/>
<g>
	<path class="st1" d="M425.2,67.6V46c0-3.6,0-12-7.2-12c0,0,7.2-1.1,7.2-16.6c0-13.7-4.7-16.9-16.4-16.9h-12.5v30.5h0v43.2h11.8
		V41.3c0-3.4,4.9,1.2,4.9,4.3v22c0,4,1.7,6.4,1.7,6.4l11.9,0.1C426.7,74.1,425.2,71.7,425.2,67.6z M408.2,28.7l0-17.2h0
		c0,0,4.9-1.6,4.9,8.3C413.2,29.6,408.2,28.7,408.2,28.7z"/>
</g>
<path class="st1" d="M555.7,10.2c0-5.7,4.7-10.3,10.5-10.2c5.8,0,10.5,4.6,10.5,10.3c0,5.7-4.7,10.2-10.5,10.2
	C560.4,20.5,555.7,15.9,555.7,10.2L555.7,10.2z M557.2,10.3c0,4.8,4,8.8,8.9,8.8c5,0,9-3.9,9-8.7c0-4.8-4-8.8-8.9-8.8
	C561.2,1.5,557.2,5.4,557.2,10.3L557.2,10.3z"/>
<path class="st1" d="M559.9,13.6h-0.8l0-7.1l1.4,0l2.2,5.7l2.2-5.7h1.4l0,7.1h-0.9l0-6.2h0l-2.4,6.2h-0.6L560,7.4h0L559.9,13.6
	L559.9,13.6z"/>
<path class="st1" d="M572.2,13.7l-1.4-3.1h-2.1l0,3.1l-0.9,0l0-7.1h2.8c0.6,0,1.2,0.1,1.7,0.4c0.5,0.4,0.8,1,0.8,1.6
	c0,0.8-0.5,1.6-1.4,1.8l1.5,3.3H572.2L572.2,13.7z M570.5,9.9c0.5,0,0.9,0,1.3-0.4c0.3-0.3,0.4-0.6,0.4-0.9c0-0.4-0.2-0.8-0.5-1
	c-0.3-0.2-0.6-0.2-1-0.2l-1.9,0l0,2.6L570.5,9.9L570.5,9.9z"/>
<polygon class="st1" points="176.8,0.3 176.8,0.3 176.9,0.3 "/>
<path class="st1" d="M176.8,0.3c-12.4,0-22.4,10-22.4,22.4c0,12.4,22.4,51.5,22.4,51.5s22.4-39.1,22.4-51.5
	C199.3,10.3,189.2,0.3,176.8,0.3z M176.9,35.3c-6.8,0-12.3-5.5-12.3-12.3c0-6.8,5.5-12.3,12.3-12.3c6.8,0,12.3,5.5,12.3,12.3
	C189.2,29.8,183.6,35.3,176.9,35.3z"/>
<polygon class="st1" points="231,38.5 224.6,0.3 206.1,0.3 206.1,74.2 216.7,74.1 216.7,27.3 226.2,74.1 241.8,74.1 241.8,0.3 
	231,0.3 "/>
<path class="st1" d="M100.2,37.6c0,7.7,0,15.2,0,22.3c0,20,28.7,17.3,28.7,2.1V45.5h-11.5v15.1c0,5.8-5.6,5.8-5.6-0.4V37.3V14.2
	c0-6.1,5.6-6.2,5.6-0.4v15.1h11.5V12.5c0-15.3-28.7-17.9-28.7,2.1C100.2,21.7,100.2,29.9,100.2,37.6L100.2,37.6z"/>
<path class="st1" d="M64.5,37.6c0,0,0,15.2,0,22.3c0,20,28.7,17.3,28.7,2.1V45.5H81.6v15.1c0,5.8-5.6,5.8-5.6-0.4V37.3V14.2
	c0-6.1,5.6-6.2,5.6-0.4v15.1h11.5V12.5c0-15.3-28.7-17.9-28.7,2.1C64.5,21.7,64.5,29.9,64.5,37.6z"/>
<polygon class="st1" points="57.6,0.3 35.6,0.3 35.6,74.1 57.6,74.1 57.6,62 47.2,62 47.2,43.8 57.6,43.8 57.6,30.4 47.2,30.4 
	47.2,14.9 57.6,14.9 "/>
<path class="st1" d="M28.6,28.4v-16C28.6-3.7,0-3.7,0,12.4v10.2c0,5.9,3.2,9.8,3.7,10.4c1,1.3,8.9,11.2,10.7,13.6
	c2.9,4,2.9,5.5,2.9,13c0,6.6-5.8,6.6-5.8,0.1V45.4H0v16.4c0,16.7,28.9,16.5,28.9-0.1c0-3.3,1.2-14.1-3.3-19.4
	c-3.9-4.7-10-12.4-12.1-15.4c-2.7-3.7-2.2-6.2-2.2-13.5c0-4.3,5.8-4.4,5.8,0.1v15C17.2,28.4,28.6,28.4,28.6,28.4z"/>
<polygon class="st1" points="135.8,0.3 147.5,0.3 147.5,74.1 135.8,74.1 "/>
<path class="st1" d="M382.4,0.3h-15.8L358,74.1h11.3l1.6-18h5.7l1.5,18h11.6L382.4,0.3z M372.2,44.2l2.1-24.1h0l2.1,24.1H372.2z"/>
<path class="st1" d="M542.6,0.3h-15.8l-8.6,73.7h11.3l1.6-18h5.7l1.5,18h11.6L542.6,0.3z M532.4,44.2l2.1-24.1h0l2.1,24.1H532.4z"/>
</svg>
