<?xml version="1.0" encoding="utf-8"?>
<!-- Generator: Adobe Illustrator 19.2.0, SVG Export Plug-In . SVG Version: 6.00 Build 0)  -->
<svg version="1.1" id="Layer_1" xmlns="http://www.w3.org/2000/svg" xmlns:xlink="http://www.w3.org/1999/xlink" x="0px" y="0px"
	 viewBox="0 0 236.8 107.6" style="enable-background:new 0 0 236.8 107.6;" xml:space="preserve">
<style type="text/css">
	.st0{fill:#FFFFFF;}
	.st1{fill:#FFD100;}
	.st2{fill-rule:evenodd;clip-rule:evenodd;}
</style>
<g>
	<g>
		<path class="st0" d="M51.6,94.2h-4.1V76.4c0-2.6-1-4.7-2.8-6.6c-1.9-1.9-4-2.8-6.5-2.8c-2.5,0-4.7,0.9-6.6,2.8
			c-1.9,1.9-2.8,4.1-2.8,6.6v17.8h-4.1V76.8c0-3.9,1.3-7.2,3.8-9.8c2.6-2.6,5.8-3.9,9.7-3.9c3.8,0,7,1.3,9.6,3.9
			c2.6,2.6,3.8,5.9,3.8,9.8V94.2z"/>
		<path class="st0" d="M86.6,84.2c-1.1,3.3-3,5.9-5.8,7.8s-5.7,2.9-9,2.9c-4.2,0.1-7.8-1.4-11-4.5c-3.2-3.1-4.9-6.8-4.9-11.1
			c-0.1-4.5,1.5-8.5,4.8-11.7c3.4-3.3,7.3-4.9,11.8-4.6c4.1,0.3,7.6,1.9,10.6,5c2.9,3,4.3,6.5,4.3,10.2v2.2H60
			c0.3,3,1.6,5.6,3.9,7.6c2.3,2,5,3,8.1,2.9c4.8-0.1,8.2-2.3,10.3-6.7H86.6z M83.3,76.6c-0.6-2.8-1.9-5.1-4-6.9
			c-2.1-1.8-4.6-2.7-7.5-2.7c-2.9-0.1-5.5,0.9-7.7,2.6c-2.2,1.8-3.5,4.1-4.1,7H83.3z"/>
		<path class="st0" d="M122.2,92.7c0,3.8-1.6,7-4.7,9.5c-3.1,2.5-6.7,3.7-10.8,3.6c-3.6-0.2-6.8-1.2-9.4-3.3c-2.5-2-4.2-4.5-5-7.6
			h3.9c0.6,2.1,2,3.9,4.1,5.4c2.1,1.5,4.4,2.3,6.9,2.3c3-0.1,5.5-1.1,7.7-3.1c2.2-2,3.3-4.5,3.3-7.3v-2.9c-3,3.4-6.7,5.2-11.2,5.4
			c-4.4,0.2-8.2-1.4-11.3-4.5c-3.1-3.2-4.7-7-4.7-11.5c0-4.3,1.4-7.9,4.4-11c2.9-3.1,6.6-4.7,10.8-4.9c4.4-0.1,8.2,1.4,11.4,4.6
			c3.3,3.1,4.8,6.9,4.7,11.3V92.7z M114.7,87.2c2.2-2.3,3.4-5,3.4-8.2c0.1-3.4-1-6.2-3.4-8.7c-2.3-2.5-5.2-3.7-8.5-3.5
			c-3.1,0.2-5.8,1.4-7.9,3.8C96,73,95,75.8,95,79c0.1,3.3,1.2,6,3.5,8.3c2.3,2.3,5,3.4,8.2,3.4C109.9,90.6,112.5,89.5,114.7,87.2z"
			/>
		<path class="st0" d="M152.9,90.3c-3.1,3.1-6.9,4.7-11.3,4.5c-4.2-0.1-7.8-1.7-10.8-4.8c-2.9-3.1-4.4-6.8-4.4-11
			c0-4.4,1.6-8.3,4.7-11.4c3.1-3.2,6.9-4.7,11.3-4.6c4.2,0.2,7.8,1.8,10.8,4.9c2.9,3.1,4.4,6.8,4.4,11
			C157.7,83.3,156.1,87.1,152.9,90.3z M141.7,90.9c3.4,0.2,6.2-1,8.5-3.5c2.4-2.5,3.5-5.4,3.5-8.7c-0.1-3.2-1.3-5.9-3.5-8.2
			c-2.2-2.3-4.8-3.4-7.9-3.4c-3.3-0.1-6,1.1-8.3,3.4c-2.3,2.3-3.4,5-3.5,8.3c-0.1,3.2,1,6,3.1,8.4C135.9,89.5,138.5,90.7,141.7,90.9
			z"/>
		<path class="st0" d="M192.9,86.1c-3.2,5.9-8.2,8.8-14.8,8.7c-4.4-0.1-8.2-1.6-11.4-4.6c-3.2-3-4.8-6.8-4.9-11.1
			c-0.1-4.4,1.5-8.2,4.7-11.3c3.3-3.1,7.1-4.8,11.6-4.9c3.2-0.1,6.2,0.8,9,2.5c2.6,1.7,4.5,3.7,5.7,6.2l0.6,1.3h-4.6
			c-2.3-3.9-5.8-5.9-10.5-6c-3.1-0.1-5.9,1.1-8.4,3.4c-2.6,2.4-3.9,5.3-3.9,8.6s1.2,6.1,3.6,8.5c2.4,2.3,5.3,3.5,8.6,3.5
			c4.7-0.1,8.3-2,10.6-5.7h4.6L192.9,86.1z"/>
		<path class="st0" d="M199.5,60.1h-4V53h4V60.1z M199.5,94.2h-4V63.8h4V94.2z"/>
		<path class="st0" d="M230.4,90.3c-3.1,3.1-6.9,4.7-11.3,4.5c-4.2-0.1-7.8-1.7-10.8-4.8c-2.9-3.1-4.4-6.8-4.4-11
			c0-4.4,1.6-8.3,4.7-11.4c3.1-3.2,6.9-4.7,11.3-4.6c4.2,0.2,7.8,1.8,10.8,4.9c2.9,3.1,4.4,6.8,4.4,11
			C235.2,83.3,233.6,87.1,230.4,90.3z M219.2,90.9c3.4,0.2,6.2-1,8.5-3.5c2.4-2.5,3.5-5.4,3.5-8.7c-0.1-3.2-1.3-5.9-3.5-8.2
			c-2.2-2.3-4.8-3.4-7.9-3.4c-3.3-0.1-6,1.1-8.3,3.4c-2.3,2.3-3.4,5-3.5,8.3c-0.1,3.2,1,6,3.1,8.4S216,90.7,219.2,90.9z"/>
	</g>
	<g>
		<path class="st0" d="M53.5,61h-5.2V38.2c0-2.9-0.8-5.4-2.5-7.4c-1.6-2-3.9-3.1-6.5-3.1c-2.7,0-5.1,0.9-7.1,2.7
			c-2,1.8-2.9,4-2.9,6.7v24h-5.2v-24c0-2.7-1-4.9-3-6.7c-2-1.8-4.3-2.7-7-2.7c-2.7,0-4.8,1-6.5,3.1c-1.6,2-2.4,4.4-2.4,7.4V61H0
			V38.8c0-4.6,1.3-8.4,4-11.2c2.5-2.7,5.7-4.2,9.8-4.5c5.4-0.5,9.7,1.9,12.9,6.9c3.2-5,7.5-7.4,12.9-6.9c4,0.3,7.3,1.8,9.9,4.5
			c2.7,2.8,4,6.6,4,11.2V61z"/>
	</g>
	<g>
		<path class="st1" d="M70.8,41.6L56.5,59.8c-0.2,0.3-0.1,0.5,0.3,0.4l8.1-1c0.4,0,0.9-0.3,1.1-0.6l10.1-12.9L70.8,41.6z"/>
		<path class="st1" d="M96.3,31.2l4.1-5.2c3.9-0.4,7.5-2.2,10-5.2c0.5-0.6,0.7-1.3,0.6-2c-0.1-0.7-0.4-1.4-1-1.8L90.8,1.8
			c-0.6-0.5-1.3-0.6-2-0.5c-0.7,0.1-1.4,0.5-1.8,1.1c-2.3,3.2-3.3,7.1-2.7,11l-4.1,5.2c-7-0.9-14.1,1.9-18.5,7.5
			c0,0.1-0.1,0.1-0.1,0.2l0,0c-0.9,1.2-0.7,2.8,0.5,3.7l27.5,21.6c1.2,0.9,2.8,0.7,3.8-0.5c0-0.1,0.1-0.1,0.1-0.2
			C97.8,45.4,98.8,37.8,96.3,31.2z M67.6,27.6c3.5-3.2,8.4-4.5,13.1-3.5c1,0.2,2.1-0.2,2.7-1l5.8-7.4c0.5-0.6,0.7-1.5,0.5-2.3
			C89.3,11.6,89.4,9.7,90,8l14.2,11.2c-1.5,1-3.3,1.5-5.1,1.5c-0.8,0-1.6,0.4-2.1,1l-5.8,7.4c-0.6,0.8-0.8,1.9-0.3,2.8
			c2.1,4.3,1.9,9.4-0.3,13.6L67.6,27.6z"/>
	</g>
</g>
<g>
	<path class="st0" d="M166.4,100v5.3c0,0.4,0,0.8,0,1.1h-0.7l0-0.8h0c-0.2,0.5-0.8,0.9-1.5,0.9c-1.1,0-1.9-0.9-1.9-2.2
		c0-1.5,0.9-2.3,2-2.3c0.7,0,1.1,0.3,1.3,0.7h0V100H166.4z M165.7,103.8c0-0.1,0-0.2,0-0.3c-0.1-0.5-0.6-0.9-1.2-0.9
		c-0.8,0-1.3,0.7-1.3,1.7c0,0.9,0.4,1.6,1.3,1.6c0.5,0,1-0.4,1.2-1c0-0.1,0-0.2,0-0.3V103.8z"/>
	<path class="st0" d="M168.2,104.4c0,1.1,0.7,1.5,1.5,1.5c0.6,0,0.9-0.1,1.2-0.2l0.1,0.6c-0.3,0.1-0.8,0.3-1.5,0.3
		c-1.4,0-2.2-0.9-2.2-2.2c0-1.3,0.8-2.4,2.1-2.4c1.4,0,1.8,1.3,1.8,2.1c0,0.2,0,0.3,0,0.4H168.2z M170.6,103.8
		c0-0.5-0.2-1.3-1.1-1.3c-0.8,0-1.2,0.7-1.2,1.3H170.6z"/>
	<g>
		<path class="st2" d="M234.4,98.4h-1.8l-1,8.2h1.3l0.2-2h0.6l0.2,2h1.3L234.4,98.4L234.4,98.4z M233.5,100.5l-0.2,2.7h0.5
			L233.5,100.5L233.5,100.5z"/>
		<path class="st2" d="M216.6,98.4h-1.8l-1,8.2h1.2l0.2-2h0.6l0.2,2h1.3L216.6,98.4L216.6,98.4z M215.7,100.5l-0.2,2.7h0.5
			L215.7,100.5L215.7,100.5z"/>
		<path class="st2" d="M206.5,98.4h-1.8l-1,8.2h1.3l0.2-2h0.6l0.2,2h1.3L206.5,98.4L206.5,98.4z M205.6,100.5l-0.2,2.7h0.5
			L205.6,100.5L205.6,100.5z"/>
		<polygon points="210.6,102.5 210.1,98.4 208,98.4 208,106.5 209.2,106.5 209.2,101.7 209.9,106.5 211.2,106.5 211.9,101.7 
			211.9,106.5 213.2,106.5 213.2,98.4 211.2,98.4 210.6,102.5 		"/>
		<polygon points="222.2,98.4 223.6,98.4 223.6,106.5 222.2,106.5 222.2,98.4 		"/>
		<polygon points="230.9,106.5 230.9,105.2 229.4,105.2 229.4,98.4 228,98.4 228,106.5 230.9,106.5 		"/>
		<polygon points="227.3,106.5 227.3,105.2 225.8,105.2 225.8,98.4 224.3,98.4 224.3,106.5 227.3,106.5 		"/>
		<path class="st2" d="M218.2,101.7v4.8h1.3v-3.6c0-0.4,0.5,0.1,0.5,0.5v2.4c0,0.4,0.2,0.7,0.2,0.7l1.3,0c0,0-0.2-0.3-0.2-0.7v-2.4
			c0-0.4,0-1.3-0.8-1.3c0,0,0.8-0.1,0.8-1.8c0-1.5-0.5-1.9-1.8-1.9h-1.4V101.7L218.2,101.7z M219.5,99.6l0,1.9c0,0,0.5,0.1,0.5-1
			C220.1,99.4,219.5,99.6,219.5,99.6L219.5,99.6z"/>
		<g>
			<path d="M193.9,98.3c-1.4,0-2.5,1.1-2.5,2.5c0,1.4,2.5,5.7,2.5,5.7s2.5-4.3,2.5-5.7C196.4,99.5,195.2,98.3,193.9,98.3z"/>
			<circle class="st1" cx="193.9" cy="100.9" r="1.4"/>
		</g>
		<polygon points="199.9,102.6 199.2,98.3 197.1,98.3 197.1,106.5 198.3,106.5 198.3,101.3 199.3,106.5 201.1,106.5 201.1,98.3 
			199.9,98.3 199.9,102.6 		"/>
		<path d="M185.4,102.5c0,0.9,0,1.7,0,2.5c0,2.2,3.2,1.9,3.2,0.2c0-1.5,0-1.8,0-1.8h-1.3c0,0,0,0.9,0,1.7c0,0.6-0.6,0.6-0.6,0
			c0-0.3,0-1.5,0-2.5c0-1.1,0-2.2,0-2.6c0-0.7,0.6-0.7,0.6,0c0,0.8,0,1.7,0,1.7h1.3c0,0,0-0.3,0-1.8c0-1.7-3.2-2-3.2,0.2
			C185.4,100.7,185.4,101.6,185.4,102.5L185.4,102.5z"/>
		<path d="M181.4,102.5c0,0,0,1.7,0,2.5c0,2.2,3.2,1.9,3.2,0.2c0-1.5,0-1.8,0-1.8h-1.3c0,0,0,0.9,0,1.7c0,0.6-0.6,0.6-0.6,0
			c0-0.3,0-1.5,0-2.5c0-1.1,0-2.2,0-2.6c0-0.7,0.6-0.7,0.6,0c0,0.8,0,1.7,0,1.7h1.3c0,0,0-0.3,0-1.8c0-1.7-3.2-2-3.2,0.2
			C181.4,100.7,181.4,101.6,181.4,102.5L181.4,102.5z"/>
		<polygon points="180.7,98.3 178.2,98.3 178.2,106.5 180.7,106.5 180.7,105.2 179.5,105.2 179.5,103.2 180.7,103.2 180.7,101.7 
			179.5,101.7 179.5,100 180.7,100 180.7,98.3 		"/>
		<path d="M177.4,101.5c0,0,0-1.1,0-1.8c0-1.8-3.2-1.8-3.2,0c0,0.3,0,0.7,0,1.1c0,0.7,0.4,1.1,0.4,1.2c0.1,0.1,1,1.2,1.2,1.5
			c0.3,0.4,0.3,0.6,0.3,1.4c0,0.7-0.6,0.7-0.6,0c0-0.2,0-1.6,0-1.6h-1.3c0,0,0,1.3,0,1.8c0,1.8,3.2,1.8,3.2,0c0-0.4,0.1-1.6-0.4-2.2
			c-0.4-0.5-1.1-1.4-1.3-1.7c-0.3-0.4-0.2-0.7-0.2-1.5c0-0.5,0.6-0.5,0.6,0c0,0.4,0,1.7,0,1.7H177.4L177.4,101.5z"/>
		<polygon points="189.3,98.3 190.6,98.3 190.6,106.5 189.3,106.5 189.3,98.3 		"/>
	</g>
</g>
</svg>
