<?xml version="1.0" encoding="UTF-8" standalone="no"?>
<!-- Generator: Adobe Illustrator 19.2.0, SVG Export Plug-In . SVG Version: 6.00 Build 0)  -->
<svg id="Capa_7" style="enable-background:new 0 0 100 100" xmlns="http://www.w3.org/2000/svg" xml:space="preserve" viewBox="0 0 100 100" version="1.1" y="0px" x="0px" xmlns:xlink="http://www.w3.org/1999/xlink">
<style type="text/css">
	.st0{fill:#808080;}
</style>
	<path class="st0" d="m21.6 32.1l0.1-0.7h6.9c-0.1 1.4-0.1 2.8-0.1 4.2 0 0.7 0.5 1.2 1.2 1.2s1.2-0.5 1.2-1.2c0-1.5 0-2.9 0.1-4.2h21.5c0.1 1.3 0.1 2.7 0.1 4.2 0 0.7 0.5 1.2 1.2 1.2s1.2-0.5 1.2-1.2c0-1.4 0-2.8-0.1-4.2h6.9l0.5 4.2h0.5c0.9 0 2 0.1 3.2 0.4l-0.7-6.7c-0.1-0.9-0.9-1.6-1.8-1.6h-8.8c-0.8-9.2-3.8-17.5-12.9-17.5-9.2 0-12.1 8.3-13 17.5h-8.8c-0.9 0-1.7 0.7-1.8 1.6l-6 50.6c-0.1 0.5 0.1 1 0.4 1.4 0.4 0.5 0.9 0.7 1.4 0.7h20.5l0.6-3.6h-8l-5.5-46.3zm20.2-19.4c6.1 0 9.5 4.7 10.5 15.1h-21c1-10.4 4.3-15.1 10.5-15.1zm-25.8 65.7l4.3-36.1 4.3 36.1h-8.6z"/>
	<path class="st0" d="m89.3 85.1l-6-34.8c-0.2-0.9-0.9-1.5-1.8-1.5h-8.6c-1.5-7-5-10.9-10.1-10.9s-8.6 3.9-10.1 10.9h-8.6c-0.9 0-1.6 0.6-1.8 1.5l-6 35c-0.1 0.5 0.1 1.1 0.4 1.5s0.8 0.7 1.4 0.7h49.5c1 0 1.8-0.8 1.8-1.8 0-0.2 0-0.4-0.1-0.6zm-26.4-44.7c4.5 0 6.6 4.1 7.6 8.5h-15.2c0.9-4.4 3.1-8.5 7.6-8.5zm-22.6 43.4l4.2-24.3 4.2 24.3h-8.4zm5.4-31.3h6.5c-0.1 1.5-0.2 3.1-0.2 4.8 0 0.6 0.5 1.2 1.2 1.2s1.2-0.5 1.2-1.2c0-1.3 0.1-3 0.2-4.8h16.4c0.2 1.8 0.2 3.6 0.2 4.8 0 0.7 0.5 1.2 1.2 1.2s1.2-0.5 1.2-1.2c0-1.7-0.1-3.3-0.2-4.8h6.6l4.4 25.3h-34.3l-4.4-25.3zm5.4 31.3l-0.8-4.8h34.3l0.8 4.8h-34.3z"/>
</svg>
